# position data <x,y,z>, velocity data <vx,vy,vz>; N=19, L=1000
4.956743545206940382e+01,3.055639058880205150e-03,-3.059288917200578695e+01,1.616019280846635253e-13,1.004629034787139387e-12,-3.016691051383089144e-12
9.951048314727812283e+01,-8.636943570349440336e+01,-7.003483533765107438e+01,-2.680022950135760019e-12,2.332775173392835248e-13,-1.045945364162936105e-12
1.496889237137763295e+01,-4.427103304570777453e+01,-4.809916538572854705e+01,-1.653702061194162411e-12,-2.572134474437475607e-12,-3.705366382388171163e-12
-8.162180038766801715e+01,8.014077430164860516e+01,-2.911747859144222517e+01,-3.515871726541271467e-13,2.588407757716354534e-12,-1.110895575695383349e-12
-4.459268174928302386e+01,9.172481582430916092e+01,-1.018822065144385220e+02,-4.403329381126471224e-12,2.315303472501186351e-12,7.176918501691670201e-13
-1.047401258761913283e+02,-1.312720570974432022e+01,9.414106973063887551e+01,-1.090655991471071802e-12,-2.204816527314389460e-12,-4.502389581462132370e-12
-1.884339275478944487e+01,-7.255111716787378207e+00,1.207189854593136999e+02,2.078507630122758653e-12,4.113246359240636552e-12,2.240968364425662083e-12
8.280639820505932391e+01,9.677334709665663226e+00,6.903571113326654540e+01,-1.401069960376881606e-12,1.437107884665365652e-12,2.476759407049593958e-12
-1.163665456303632197e+02,-6.379243481028738927e+01,-1.090621379270049971e+02,-7.401394862125445722e-12,-2.047806100011616323e-16,-5.831159360558213707e-12
-7.958670066842289259e+01,-5.174321713530379441e+01,9.897596292420330144e+01,1.635373130848725837e-12,5.033386170185515036e-13,3.284299163565575006e-12
9.816514733863906272e+00,3.605479575766329958e+01,-6.707197532398134854e+01,-2.985466641661428106e-13,8.789571790256656030e-13,-2.375313806261344531e-12
-8.508445903770989105e+01,7.699358755468625759e+01,-6.220725640411225044e+01,1.794162158571404572e-12,-1.694333557544708451e-12,-1.350540323169307137e-12
-9.883833471848906260e-01,-2.483361778206015913e+01,-1.145606383310852578e+02,-5.071063751608197586e-13,-2.484519723600032601e-12,1.671967201988017927e-12
3.223587388622561178e+01,-5.214443788487991505e+00,1.231245306488878732e+01,-2.427385089869681221e-12,-4.051177528846105904e-13,1.937595337790281404e-13
-7.868198912325249239e+01,-9.582782847090518885e+01,-8.852999425173129566e+01,2.110500393508236644e-12,-2.534459251224872691e-13,4.148899559012508766e-12
-8.963098158234367929e+01,-1.409011487586843145e+02,7.357765495311093673e+01,1.149417061128067119e-12,-7.051223188034191201e-12,-1.187941191072842435e-12
-7.520622063969503301e+01,4.722659880396652454e+01,4.971046626035754912e+01,4.972542149752207469e-12,1.237563961884893365e-12,2.324302560436793010e-12
-6.524092078362717650e+00,-9.877404133421373444e+01,3.381095268021059042e+01,8.872281070147361900e-14,3.584768662501887326e-12,-3.605709369599769177e-12
-2.055053870460891474e+01,1.405543164218676089e-01,6.662704872903621833e+01,-2.107248271738053792e-12,-7.356628858098883442e-12,-3.890144815925489892e-13
