# position data <x,y,z>, velocity data <vx,vy,vz>; N=19, L=1000
5.701293625601731208e+01,4.628944098099906768e+01,-1.695812333876168054e+02,1.616018049187910334e-13,1.004629010027403433e-12,-3.016691016808762729e-12
-2.396651715259868354e+01,-7.562161316493829588e+01,-1.182247923314358928e+02,-2.680023041470476493e-12,2.332775673101973307e-13,-1.045945321746733920e-12
-6.122230809440804933e+01,-1.627772691155726363e+02,-2.188169243563564805e+02,-1.653702056476680493e-12,-2.572134348048595666e-12,-3.705366308606205073e-12
-9.782051492876887266e+01,1.993967731076446341e+02,-8.029989658846240275e+01,-3.515871559849857948e-13,2.588407691667016193e-12,-1.110895620210918836e-12
-2.474677688540361657e+02,1.983980502974166882e+02,-6.881590757945269843e+01,-4.403329336153704989e-12,2.315303412710986784e-12,7.176919034906267882e-13
-1.549900392350488119e+02,-1.147099647363327506e+02,-1.132980304505539664e+02,-1.090655906429079937e-12,-2.204816522245178674e-12,-4.502389590907242496e-12
7.691992197074385729e+01,1.822549478081292591e+02,2.239673696044728786e+02,2.078507623033025530e-12,4.113246314832777322e-12,2.240968278705356469e-12
1.825474319648662203e+01,7.588936757637561925e+01,1.831477237167507042e+02,-1.401070005473097277e-12,1.437107901802185148e-12,2.476759364433748016e-12
-4.573718397194662089e+02,-6.380186948279848735e+01,-3.777217959351295349e+02,-7.401394833274253526e-12,-2.047744292189791529e-16,-5.831159337100284342e-12
-4.239970507769776908e+00,-2.855283978360149888e+01,2.502938444074524682e+02,1.635373150989121946e-12,5.033386434861373399e-13,3.284299095601849922e-12
-3.938459808513006255e+00,7.655108630915485435e+01,-1.765100725023120276e+02,-2.985466783303827524e-13,8.789570880043265848e-13,-2.375313711307329175e-12
-2.421822999828269651e+00,-1.069632140872413206e+00,-1.244308505903457132e+02,1.794162244000201520e-12,-1.694333535603593665e-12,-1.350540265444771229e-12
-2.435235160107629326e+01,-1.393031748067024296e+02,-3.752790417580705196e+01,-5.071063550407702533e-13,-2.484519742831638530e-12,1.671967240100084548e-12
-7.960131193782544301e+01,-2.387948026025302894e+01,2.123955633495592821e+01,-2.427385095265907038e-12,-4.051177833149312175e-13,1.937594776608846810e-13
1.855533290756837062e+01,-1.075048691274977983e+02,1.026227201014814767e+02,2.110500412114225439e-12,-2.534458605210494776e-13,4.148899543512239455e-12
-3.667376018330975285e+01,-4.657729436672387919e+02,1.884550696129791802e+01,1.149417068532445327e-12,-7.051223141689035394e-12,-1.187941201435441667e-12
1.538942712996370688e+02,1.042450199680173739e+02,1.567983185166775115e+02,4.972542136301933246e-12,1.237563895110224257e-12,2.324302565899301117e-12
-2.436356919471668991e+00,6.638740799151301530e+01,-1.323153000140021334e+02,8.872276781340986531e-14,3.584768660789238140e-12,-3.605709426253359233e-12
-1.176380243291939394e+02,-3.388022305258065785e+02,4.870393990081574742e+01,-2.107248261104878046e-12,-7.356628818023066823e-12,-3.890145165024592058e-13
