# position data <x,y,z>, velocity data <vx,vy,vz>; N=19, L=1000
5.364716260776758361e+01,2.536545870440916772e+01,-1.067508861913499345e+02,1.616018585300773893e-13,1.004629014455729383e-12,-3.016691036668147853e-12
3.185185345306075533e+01,-8.048021814845745325e+01,-9.644029149626932451e+01,-2.680023017906636910e-12,2.332775523082991385e-13,-1.045945341522015818e-12
-2.677971071308714102e+01,-1.092059576419410973e+02,-1.416431434702391527e+02,-1.653702061804820420e-12,-2.572134367174997389e-12,-3.705366334664077811e-12
-9.049780838306456587e+01,1.454865274090194021e+02,-5.716263895342304835e+01,-3.515871564517051384e-13,2.588407709846845010e-12,-1.110895618964307166e-12
-1.557571133743907126e+02,1.501759034983053596e+02,-8.376368679608356160e+01,-4.403329354451632417e-12,2.315303423147706327e-12,7.176919008342339940e-13
-1.322743254354385556e+02,-6.878899153212279316e+01,-1.952419059384137512e+01,-1.090655932161012816e-12,-2.204816529663978218e-12,-4.502389592360109309e-12
3.362965641669583050e+01,9.658601707512255530e+01,1.772934430184018311e+02,2.078507624188331486e-12,4.113246336434749268e-12,2.240968300914371144e-12
4.743562857522604759e+01,4.595790043897216748e+01,1.315628415834518137e+02,-1.401070012370933181e-12,1.437107890269042752e-12,2.476759378314962739e-12
-3.032187617022678978e+02,-6.379760452271672477e+01,-2.562729095470335210e+02,-7.401394839122693491e-12,-2.047751907020537388e-16,-5.831159341710629608e-12
-3.830082123307440156e+01,-3.903616115924458541e+01,1.818898709349427349e+02,1.635373146660231548e-12,5.033386368505292012e-13,3.284299113779041293e-12
2.279542485700828625e+00,5.824454452896333834e+01,-1.270380565147476091e+02,-2.985466826685780240e-13,8.789571314861342991e-13,-2.375313758761993081e-12
-3.978986449764652633e+01,3.421922060170421531e+01,-9.630237681476965861e+01,1.794162194776569061e-12,-1.694333557699198162e-12,-1.350540293038515810e-12
-1.379055788829154849e+01,-8.755666266796805530e+01,-7.235092104120555234e+01,-5.071063587291920307e-13,-2.484519771389495032e-12,1.671967251276020224e-12
-2.904477589216272904e+01,-1.544186084373352230e+01,1.720401686317769574e+01,-2.427385105672809708e-12,-4.051177755265120441e-13,1.937594953408733561e-13
-2.540126479559510031e+01,-1.022262072886606319e+02,1.621121924697861516e+01,2.110500419299314149e-12,-2.534458761362773554e-13,4.148899561184428176e-12
-6.061332604718533190e+01,-3.189130914213671417e+02,4.358743692360477695e+01,1.149417069557283332e-12,-7.051223155143188642e-12,-1.187941200338195470e-12
5.032829561618343917e+01,7.846956973575852601e+01,1.083887413353408249e+02,4.972542162337855001e-12,1.237563910646166135e-12,2.324302557046087995e-12
-4.284236916366672254e+00,-8.274617000406184530e+00,-5.721713068229409060e+01,8.872279603413981847e-14,3.584768690920189815e-12,-3.605709377877093340e-12
-7.374916105012566447e+01,-1.855815198394312802e+02,5.680616739070224952e+01,-2.107248267344865651e-12,-7.356628829406857275e-12,-3.890145097043415301e-13
