# position data <x,y,z>, velocity data <vx,vy,vz>; N=19, L=1000
5.895080546745613503e+01,5.833658228665544954e+01,-2.057562815825270661e+02,1.616017815866215202e-13,1.004629012354131836e-12,-3.016691006421393315e-12
-5.610436696390670619e+01,-7.282423439027616041e+01,-1.307673836112766423e+02,-2.680023038435977341e-12,2.332775753955316320e-13,-1.045945319465933024e-12
-8.105289444355874195e+01,-1.936213574022085311e+02,-2.632503131736947921e+02,-1.653702056302632888e-12,-2.572134341798546589e-12,-3.705366300979290441e-12
-1.020366186770454675e+02,2.304360053372371340e+02,-9.362134795788639963e+01,-3.515871541040664441e-13,2.588407685049148817e-12,-1.110895620357439665e-12
-3.002708733998841808e+02,2.261623165645519293e+02,-6.020961044857354239e+01,-4.403329330830359115e-12,2.315303409865921686e-12,7.176919033536140940e-13
-1.680687833470966552e+02,-1.411493128779839026e+02,-1.672890291302978483e+02,-1.090655897123696692e-12,-2.204816518441412053e-12,-4.502389588970737557e-12
1.018446203015476357e+02,2.315794835330785588e+02,2.508402362970110744e+02,2.078507621798140195e-12,4.113246308868586193e-12,2.240968274327656558e-12
1.453627421233838701e+00,9.312263653374773753e+01,2.128481103286758014e+02,-1.401070003656698317e-12,1.437107899045174596e-12,2.476759361742937561e-12
4.538733578231442607e+02,-6.380432506114412661e+01,-4.476469123074647314e+02,-7.401394833100694232e-12,-2.047742073456631890e-16,-5.831159335708238730e-12
1.537082235963259613e+01,-2.251698802688663292e+01,2.896779501985221259e+02,1.635373151599047691e-12,5.033386463118956675e-13,3.284299088081225575e-12
-7.518521617597865969e+00,8.709121611125230800e+01,-2.049939599528079270e+02,-2.985466663244067735e-13,8.789570838333372104e-13,-2.375313669799613640e-12
1.909311018860844911e+01,-2.138745620265633818e+01,-1.406260323468406739e+02,1.794162238212557310e-12,-1.694333531147609873e-12,-1.350540267354334031e-12
-3.043338436212318143e+01,-1.690966209813001626e+02,-1.747828848766043919e+01,-5.071063568251308079e-13,-2.484519734170364834e-12,1.671967236795922698e-12
-1.087096204718711192e+02,-2.873750360811703430e+01,2.356304863658705173e+01,-2.427385089945307663e-12,-4.051177847027177887e-13,1.937594724132925268e-13
4.386367697758736028e+01,-1.105440985691417666e+02,1.523747962331077019e+02,2.110500409192250315e-12,-2.534458561791483015e-13,4.148899539449297923e-12
-2.289037379106658321e+01,4.496713839117985572e+02,4.600153341692128528e+00,1.149417067953076596e-12,-7.051223141818674145e-12,-1.187941201631318077e-12
2.135231662145996836e+02,1.190854306582288018e+02,1.846704993297698820e+02,4.972542129764261191e-12,1.237563894339875153e-12,2.324302564909627982e-12
-1.372426133134370119e+00,1.093746341579896040e+02,-1.755536404229654011e+02,8.872276862514742124e-14,3.584768640816007438e-12,-3.605709459409249823e-12
-1.429073698076650203e+02,-4.270202153918209547e+02,4.403902100132170006e+01,-2.107248259383200960e-12,-7.356628814379609259e-12,-3.890145178954467559e-13
