# position data <x,y,z>, velocity data <vx,vy,vz>; N=19, L=1000
5.497307357444690723e+01,3.360823961317995412e+01,-1.315022351366847033e+02,1.616018370178163206e-13,1.004629011478319627e-12,-3.016691029675516768e-12
9.862798424857709634e+00,-7.856622228023755383e+01,-1.050220646053034130e+02,-2.680023034627264196e-12,2.332775578542614586e-13,-1.045945330660393224e-12
-4.034800666433422833e+01,-1.303098076643163665e+02,-1.720449360050914152e+02,-1.653702058254808214e-12,-2.572134357661008725e-12,-3.705366321056818601e-12
-9.338251096307891430e+01,1.667238969723575792e+02,-6.627731620128506052e+01,-3.515871571593697140e-13,2.588407701555964051e-12,-1.110895620064935797e-12
-1.918855534575101842e+02,1.691725068088679222e+02,-7.787516771669235993e+01,-4.403329344908957792e-12,2.315303417841341081e-12,7.176919030134517181e-13
-1.412229400272730118e+02,-8.687907190421935866e+01,-5.646540023806116437e+01,-1.090655920102225818e-12,-2.204816526681540554e-12,-4.502389592465787287e-12
5.068339739577115211e+01,1.303343837829665119e+02,1.956801414260751812e+02,2.078507624263937732e-12,4.113246325873435646e-12,2.240968288189017735e-12
3.594012825276070799e+01,5.774908443873121655e+01,1.518841588187617617e+02,-1.401070009038095670e-12,1.437107901680627766e-12,2.476759369061817889e-12
-3.639457318449215109e+02,-6.379928466039770996e+01,-3.041164102569314878e+02,-7.401394836279402307e-12,-2.047747588092764663e-16,-5.831159339438294188e-12
-2.488291035240952453e+01,-3.490636790678665591e+01,2.088368908332523404e+02,1.635373148956000858e-12,5.033386396740990140e-13,3.284299105633072846e-12
-1.699735800195524282e-01,6.545621261413705838e+01,-1.465270326236717722e+02,-2.985466842929343629e-13,8.789571135232514701e-13,-2.375313741021381013e-12
-2.506912104120036844e+01,2.031755127433313035e+01,-1.073832908300440323e+02,1.794162217413941115e-12,-1.694333564455129576e-12,-1.350540280762109023e-12
-1.795126451003442725e+01,-1.079416523728428388e+02,-5.863276285167881241e+01,-5.071063536021025324e-13,-2.484519758016653881e-12,1.671967246240353672e-12
-4.896098708858437476e+01,-1.876577150296567353e+01,1.879377488051984813e+01,-2.427385102006502895e-12,-4.051177797306680592e-13,1.937594861441469790e-13
-8.085029317756387002e+00,-1.043056801734532257e+02,5.025211356902446624e+01,2.110500416567971440e-12,-2.534458676700707603e-13,4.148899552404989225e-12
-5.118258797705782115e+01,-3.767669726430783044e+02,3.384061603209557489e+01,1.149417069528493771e-12,-7.051223148815113168e-12,-1.187941201072262728e-12
9.112701337959569514e+01,8.862353501146269252e+01,1.274591808125857426e+02,4.972542149093381537e-12,1.237563898144012753e-12,2.324302565198243737e-12
-3.556284082604928898e+00,2.113769595695663384e+01,-8.680125784457365512e+01,8.872278451748614326e-14,3.584768692283277240e-12,-3.605709393108186044e-12
-9.103871326647862361e+01,-2.459411937742898715e+02,5.361438082038365138e+01,-2.107248264388433688e-12,-7.356628823085410556e-12,-3.890145134788166474e-13
