# position data <x,y,z>, velocity data <vx,vy,vz>; N=19, L=1000
5.589101183171526088e+01,3.931478023109029607e+01,-1.486377843699054893e+02,1.616018220155479821e-13,1.004629010333697145e-12,-3.016691023980437623e-12
-5.360393574419863860e+00,-7.724114819315205693e+01,-1.109632920959613074e+02,-2.680023039533236866e-12,2.332775615636715809e-13,-1.045945325374246648e-12
-4.974144231060615340e+01,-1.449201653323950723e+02,-1.930923307825511586e+02,-1.653702057106413740e-12,-2.572134352766611737e-12,-3.705366314630099417e-12
-9.537961274952495216e+01,1.814266912487129275e+02,-7.258747737534180544e+01,-3.515871568080914927e-13,2.588407696733281360e-12,-1.110895620162311070e-12
-2.168975503995918643e+02,1.823240013867233813e+02,-7.379850065562581563e+01,-4.403329340349087507e-12,2.315303415206614118e-12,7.176919034156291130e-13
-1.474181346921741635e+02,-9.940297368561665792e+01,-8.204008383616307754e+01,-1.090655913327467362e-12,-2.204816524598640398e-12,-4.502389591916226744e-12
6.248983345648078824e+01,1.536986376115672215e+02,2.084093941210525998e+02,2.078507623774837307e-12,4.113246320123072321e-12,2.240968282889520754e-12
2.798170497205692087e+01,6.591221185083401224e+01,1.659527630299291445e+02,-1.401070006909333438e-12,1.437107902682957209e-12,2.476759366550681726e-12
-4.059874803931635938e+02,-6.380044783099044281e+01,-3.372388338157734324e+02,-7.401394834768246726e-12,-2.047745772454207183e-16,-5.831159338253961382e-12
-1.559358742552611510e+01,-3.204728025734308261e+01,2.274925199573366683e+02,1.635373150085362907e-12,5.033386414875843636e-13,3.284299100811736747e-12
-1.865792392218418749e+00,7.044890581725819345e+01,-1.600194006143733247e+02,-2.985466824657211170e-13,8.789571012908284371e-13,-2.375313728782702225e-12
-1.487783696207482009e+01,1.069331868173422606e+01,-1.150546927424895074e+02,1.794162240233827865e-12,-1.694333548200659964e-12,-1.350540265337562281e-12
-2.083175369834950175e+01,-1.220543374918921415e+02,-4.913557643795234497e+01,-5.071063537402004972e-13,-2.484519750107442054e-12,1.671967242962546289e-12
-6.274913328137996160e+01,-2.106694043817548589e+01,1.989437654823618473e+01,-2.427385098894346104e-12,-4.051177817127520431e-13,1.937594818079517033e-13
3.903133690668969979e+00,-1.057453152138529049e+02,7.381888652257670458e+01,2.110500414397553314e-12,-2.534458638375293714e-13,4.148899547621313270e-12
-4.465361546830100536e+01,-4.168196596151135509e+02,2.709281695079674179e+01,1.149417069174421897e-12,-7.051223145260954760e-12,-1.187941201312557484e-12
1.193722794634209521e+02,9.565320324630494042e+01,1.406617927786065820e+02,4.972542142111944855e-12,1.237563896137009852e-12,2.324302566066809634e-12
-3.052316835781222704e+00,4.150006643179446542e+01,-1.072825767736094491e+02,8.872276759259541695e-14,3.584768674914049880e-12,-3.605709414214834727e-12
-1.030084032498266566e+02,-2.877286603203294817e+02,5.140468241128045435e+01,-2.107248262785010714e-12,-7.356628820376746248e-12,-3.890145150806569524e-13
