# position data <x,y,z>, velocity data <vx,vy,vz>; N=19, L=1000
5.283121731104345287e+01,2.029297813030845887e+01,-9.151928681440378455e+01,1.616018713644468323e-13,1.004629017235235975e-12,-3.016691040126995910e-12
4.538357953846941228e+01,-8.165806173087344177e+01,-9.115920030941084917e+01,-2.680023002553703895e-12,2.332775465710184345e-13,-1.045945347099038760e-12
-1.842999010830186535e+01,-9.621897296730263349e+01,-1.229343479953672613e+02,-1.653702065736002541e-12,-2.572134375711086508e-12,-3.705366348303344224e-12
-8.872260680123245891e+01,1.324173768720216060e+02,-5.155360681019339353e+01,-3.515871550686332038e-13,2.588407715859603112e-12,-1.110895616275937056e-12
-1.335242271234848772e+02,1.384856860507754561e+02,-8.738739082982608863e+01,-4.403329362700983497e-12,2.315303427902830818e-12,7.176918969908907390e-13
-1.267674856325193105e+02,-5.765663436929353480e+01,3.208861491953719725e+00,-1.090655941256377812e-12,-2.204816530878390429e-12,-4.502389591325614940e-12
2.313504658578380457e+01,7.581779136455504897e+01,1.659785516283697859e+02,2.078507623498080769e-12,4.113246342889726687e-12,2.240968312026548684e-12
5.450978260842912704e+01,3.870178727292493193e+01,1.190574155441563136e+02,-1.401070004134263854e-12,1.437107880237056262e-12,2.476759385703299985e-12
-2.658483185243985645e+02,-6.379657058960710714e+01,-2.268307552534038507e+02,-7.401394841431663158e-12,-2.047756306103705935e-16,-5.831159343592904134e-12
-4.655799714899691821e+01,-4.157757237971018327e+01,1.653070894230107513e+02,1.635373144808774751e-12,5.033386350196729577e-13,3.284299119818396806e-12
3.786936973129549688e+00,5.380659486767221011e+01,-1.150448403755089970e+02,-2.985466792747045898e-13,8.789571413667391643e-13,-2.375313769458580622e-12
-4.884878347496940876e+01,4.277409400526160255e+01,-8.948335277658890163e+01,1.794162185503303082e-12,-1.694333553687241935e-12,-1.350540295821667368e-12
-1.123012301553572279e+01,-7.501205356720575423e+01,-8.079286455655964971e+01,-5.071063634568927386e-13,-2.484519777776587500e-12,1.671967251849473887e-12
-1.678864591345845270e+01,-1.339637737995788669e+01,1.622570419086193638e+01,-2.427385106731276563e-12,-4.051177723514455018e-13,1.937595042252160653e-13
-3.605740971265288408e+01,-1.009465316267046973e+02,-4.737023447799464826e+00,2.110500419428765491e-12,-2.534458834743830687e-13,4.148899565748778485e-12
-6.641685716621761060e+01,-2.833107029490323612e+02,4.958548054515374304e+01,1.149417069163373906e-12,-7.051223159857491285e-12,-1.187941199522515011e-12
2.522139234203210023e+01,7.222097564733047648e+01,9.665308631780729343e+01,4.972542162192786585e-12,1.237563923114794672e-12,2.324302550166040311e-12
-4.732207917432999622e+00,-2.637450190169185404e+01,-3.901151399781725360e+01,8.872279870581397173e-14,3.584768693700529646e-12,-3.605709376625653084e-12
-6.310943659573634790e+01,-1.484371050781573729e+02,5.877034372100997217e+01,-2.107248269621921009e-12,-7.356628835495796772e-12,-3.890145052958078356e-13
