# position data <x,y,z>, velocity data <vx,vy,vz>; N=19, L=1000
5.272922414440947847e+01,1.965891805749916799e+01,-8.961533689110363810e+01,1.616018729603332947e-13,1.004629017642600010e-12,-3.016691040513911661e-12
4.707504529359207623e+01,-8.180529217650168050e+01,-9.049906390920310173e+01,-2.680023000571621223e-12,2.332775457327005197e-13,-1.045945347677251539e-12
-1.738627503119727180e+01,-9.459559987966649430e+01,-1.205957485556806716e+02,-1.653702066335610137e-12,-2.572134377118864304e-12,-3.705366350559454303e-12
-8.850070660402055012e+01,1.307837330527073050e+02,-5.085247779343687569e+01,-3.515871548886931983e-13,2.588407716667115970e-12,-1.110895615731317180e-12
-1.307451163390690567e+02,1.370244088680319692e+02,-8.784035383245608841e+01,-4.403329363840474067e-12,2.315303428617963193e-12,7.176918962712304795e-13
-1.260791306538350227e+02,-5.626508972356960214e+01,6.050493002230767914e+00,-1.090655942475385964e-12,-2.204816530967614864e-12,-4.502389591112661169e-12
2.182322035718144093e+01,7.322176314852285373e+01,1.645641902005405655e+02,2.078507623405376763e-12,4.113246343603753193e-12,2.240968313523193466e-12
5.539405185909468798e+01,3.779477313021669005e+01,1.174942372869271310e+02,-1.401070002716532628e-12,1.437107879540650764e-12,2.476759386317995346e-12
-2.611770131263068606e+02,-6.379644134779891829e+01,-2.231504859659983708e+02,-7.401394841760011856e-12,-2.047756997100429396e-16,-5.831159343862901056e-12
-4.759014413780253960e+01,-4.189524878161487464e+01,1.632342417318007506e+02,1.635373144549322362e-12,5.033386347879925120e-13,3.284299120651854782e-12
3.975361282779172889e+00,5.325185115659260759e+01,-1.135456883543493802e+02,-2.985466787934790913e-13,8.789571425174111111e-13,-2.375313770750137522e-12
-4.998114834393585681e+01,4.384345317929405184e+01,-8.863097477081542763e+01,1.794162184442301371e-12,-1.694333553198945264e-12,-1.350540296202463477e-12
-1.091006865488574284e+01,-7.344397742765639236e+01,-8.184810749606066338e+01,-5.071063638825564285e-13,-2.484519778160085476e-12,1.671967251875537751e-12
-1.525662966582931546e+01,-1.314069194817938602e+01,1.610341510344410310e+01,-2.427385106771717940e-12,-4.051177718609867714e-13,1.937595055541306919e-13
-3.738942782715710678e+01,-1.007865721661937926e+02,-7.355553786106494130e+00,2.110500419239908202e-12,-2.534458845729900948e-13,4.148899566139319209e-12
-6.714229855592972740e+01,-2.788604043882674546e+02,5.033523599753188904e+01,1.149417069086611909e-12,-7.051223160496344521e-12,-1.187941199393713538e-12
2.208302943328529366e+01,7.143990138215939112e+01,9.518612944267675857e+01,4.972542161863645442e-12,1.237563924338351712e-12,2.324302549716993522e-12
-4.788204293548160351e+00,-2.863698751540647791e+01,-3.673581191254337597e+01,8.872279908797478474e-14,3.584768694022577958e-12,-3.605709376597638399e-12
-6.177947103812346796e+01,-1.437940532307175943e+02,5.901586576055868250e+01,-2.107248269900468022e-12,-7.356628836361400894e-12,-3.890145045682212531e-13
