# position data <x,y,z>, velocity data <vx,vy,vz>; N=19, L=1000
5.374915576528503180e+01,2.599951877524752675e+01,-1.086548361121914468e+02,1.616018569072581553e-13,1.004629014164508089e-12,-3.016691036190730545e-12
3.016038768707543838e+01,-8.033298769877225709e+01,-9.710042789250729811e+01,-2.680023019654112499e-12,2.332775528759029623e-13,-1.045945340698544593e-12
-2.782342578740658467e+01,-1.108293307234928307e+02,-1.439817429002224003e+02,-1.653702061419460883e-12,-2.572134366304765014e-12,-3.705366333339330288e-12
-9.071970858124605286e+01,1.471201712240665529e+02,-5.786376797209189249e+01,-3.515871565794288629e-13,2.588407709146807470e-12,-1.110895619144306595e-12
-1.585362241529638823e+02,1.516371806776730864e+02,-8.331072379072251977e+01,-4.403329353553620426e-12,2.315303422651734809e-12,7.176919011297993997e-13
-1.329626804076738722e+02,-7.018053617698397773e+01,-2.236582210485272526e+01,-1.090655931118509578e-12,-2.204816529460476844e-12,-4.502389592421618750e-12
3.494148264578078056e+01,9.918204528657881269e+01,1.787078044383632118e+02,2.078507624245748645e-12,4.113246335576491221e-12,2.240968299681312231e-12
4.655135931886093204e+01,4.686491458874575500e+01,1.331260198354576119e+02,-1.401070012626686481e-12,1.437107891787020554e-12,2.476759377216028254e-12
-3.078900670987212038e+02,-6.379773376421263720e+01,-2.599531788331033226e+02,-7.401394838868682804e-12,-2.047751472218464936e-16,-5.831159341505458928e-12
-3.726867424295507902e+01,-3.871848475604055295e+01,1.839627186218653208e+02,1.635373146866387130e-12,5.033386370751307498e-13,3.284299113089274848e-12
2.091118173658178314e+00,5.879928823302113017e+01,-1.285372085283134993e+02,-2.985466829943945415e-13,8.789571301636745490e-13,-2.375313757392189661e-12
-3.865749962209182655e+01,3.314986142481998144e+01,-9.715475481854790019e+01,1.794162196027134477e-12,-1.694333558221245862e-12,-1.350540292656251132e-12
-1.411061224561456484e+01,-8.912473880302577811e+01,-7.129567810215591805e+01,-5.071063581000985566e-13,-2.484519770398002746e-12,1.671967251026701000e-12
-3.057679213903975679e+01,-1.569754627777889588e+01,1.732630594429814153e+01,-2.427385105465479392e-12,-4.051177758880692870e-13,1.937594944397329821e-13
-2.406924668117093091e+01,-1.023861667439561955e+02,1.882974958205438298e+01,2.110500419156636802e-12,-2.534458753483607609e-13,4.148899560499713268e-12
-5.988788465719444076e+01,-3.233633899787870405e+02,4.283768147064799336e+01,1.149417069581589840e-12,-7.051223154600701947e-12,-1.187941200417039757e-12
5.346665852489724102e+01,7.925064399212890009e+01,1.098556982153183696e+02,4.972542161684157750e-12,1.237563908985121024e-12,2.324302558114371965e-12
-4.228240542163807625e+00,-6.012131388603211946e+00,-5.949283276849168089e+01,8.872279569018074968e-14,3.584768690749927126e-12,-3.605709378247476384e-12
-7.507912660612946354e+01,-1.902245716825616455e+02,5.656064534802660404e+01,-2.107248267079697315e-12,-7.356628828773290241e-12,-3.890145101033951873e-13
