# position data <x,y,z>, velocity data <vx,vy,vz>; N=19, L=1000
5.517705986122722805e+01,3.487635975108749875e+01,-1.353101349690672350e+02,1.616018336587352116e-13,1.004629011160609570e-12,-3.016691028456706525e-12
6.479866872017614909e+00,-7.827176137377175280e+01,-1.063423373837032386e+02,-2.680023036071921808e-12,2.332775586023517603e-13,-1.045945329269316157e-12
-4.243543680854298117e+01,-1.335565538152255556e+02,-1.767221348477487766e+02,-1.653702057931654638e-12,-2.572134356475172616e-12,-3.705366319474564261e-12
-9.382631136022313001e+01,1.699911845917206392e+02,-6.767957423991177279e+01,-3.515871571216842761e-13,2.588407700425202096e-12,-1.110895620103704839e-12
-1.974437750024833349e+02,1.720950611608216150e+02,-7.696924170333640802e+01,-4.403329343782330528e-12,2.315303417198300244e-12,7.176919031465741794e-13
-1.425996499561789506e+02,-8.966216119000301887e+01,-6.214866326011711095e+01,-1.090655918498025545e-12,-2.204816526207835058e-12,-4.502389592377418710e-12
5.330704985393944639e+01,1.355264401922054844e+02,1.985088642498691343e+02,2.078507624176438341e-12,4.113246324469799004e-12,2.240968286811980119e-12
3.417158974484208045e+01,5.956311275195226784e+01,1.550105153114032532e+02,-1.401070008438891971e-12,1.437107902146142033e-12,2.476759368389124161e-12
-3.732883426341738300e+02,-6.379954314284349692e+01,-3.114769488261547394e+02,-7.401394835916623832e-12,-2.047747122417189149e-16,-5.831159339152418468e-12
-2.281861636922749170e+01,-3.427101509669540746e+01,2.129825861965495619e+02,1.635373149238570279e-12,5.033386400883361609e-13,3.284299104512532306e-12
-5.468222057791619628e-01,6.656569999865007503e+01,-1.495253366275789801e+02,-2.985466840537043796e-13,8.789571107436419852e-13,-2.375313738333419647e-12
-2.280439125839312453e+01,1.817883291287980896e+01,-1.090880468194106783e+02,1.794162223543144073e-12,-1.694333563427766409e-12,-1.350540276212821035e-12
-1.859137321853964053e+01,-1.110778046254847595e+02,-5.652227698031039438e+01,-5.071063534610563230e-13,-2.484519756099497618e-12,1.671967245427807653e-12
-5.202501957740141592e+01,-1.927714237645303541e+01,1.903835303107150168e+01,-2.427385101323235149e-12,-4.051177802388965315e-13,1.937594850826741727e-13
-5.420993092586321005e+00,-1.046255990732538805e+02,5.548917422777712716e+01,2.110500416073533115e-12,-2.534458666968986261e-13,4.148899551222078136e-12
-4.973170519716833837e+01,-3.856675697497454962e+02,3.234110512526459047e+01,1.149417069468394536e-12,-7.051223147971229000e-12,-1.187941201140219776e-12
9.740373917953317573e+01,9.018568350914202369e+01,1.303930945823325374e+02,4.972542147296757363e-12,1.237563897504359599e-12,2.324302565549437241e-12
-3.444291351510201160e+00,2.566266718169832473e+01,-9.135266203955055175e+01,8.872277985172573346e-14,3.584768690923917378e-12,-3.605709398659896774e-12
-9.369864437468631024e+01,-2.552272974525531595e+02,5.312333673027785608e+01,-2.107248264009245290e-12,-7.356628822398934658e-12,-3.890145138811283380e-13
