# position data <x,y,z>, velocity data <vx,vy,vz>; N=19, L=1000
5.558503242209059891e+01,3.741260002581512367e+01,-1.429259346291178758e+02,1.616018269684224089e-13,1.004629010632370335e-12,-3.016691025930879020e-12
-2.859962384073753139e-01,-7.768283955788514561e+01,-1.089828829356445254e+02,-2.680023038312408755e-12,2.332775602183573818e-13,-1.045945326864176848e-12
-4.661029709587361936e+01,-1.400500461127447522e+02,-1.860765325273792712e+02,-1.653702057408442706e-12,-2.572134354277453087e-12,-3.705366316587384037e-12
-9.471391215428511146e+01,1.765257598262776071e+02,-7.048409031727136664e+01,-3.515871569716921568e-13,2.588407698266863715e-12,-1.110895620146618065e-12
-2.085602180883879555e+02,1.779401698624069752e+02,-7.515738967621264521e+01,-4.403329341732104411e-12,2.315303416014765538e-12,7.176919033311226977e-13
-1.453530698081040669e+02,-9.522833975979445142e+01,-7.351518930382609085e+01,-1.090655915461873647e-12,-2.204816525277785974e-12,-4.502389592139210888e-12
5.855435476989779175e+01,1.459105530056051805e+02,2.041663098926410100e+02,2.078507623960485232e-12,4.113246321880815775e-12,2.240968284417337886e-12
3.063451273101258820e+01,6.319116937962862579e+01,1.612632282943963560e+02,-1.401070007474108773e-12,1.437107902614789125e-12,2.476759367266255964e-12
-3.919735642113571998e+02,-6.380006010757110602e+01,-3.261980259635628272e+02,-7.401394835238767091e-12,-2.047746302926549486e-16,-5.831159338620877376e-12
-1.869002840185246939e+01,-3.300030947496414058e+01,2.212739769189953449e+02,1.635373149749287664e-12,5.033386408981735466e-13,3.284299102357736100e-12
-1.300519456054586298e+00,6.878467475724852420e+01,-1.555219446251968520e+02,-2.985466832717307728e-13,8.789571052799974141e-13,-2.375313732930695938e-12
-1.827493166941248859e+01,1.390139620041946600e+01,-1.124975587811690190e+02,1.794162235176890896e-12,-1.694333555566882649e-12,-1.350540268056713567e-12
-1.987159063539667159e+01,-1.173501091237970826e+02,-5.230130524049717167e+01,-5.071063535115732083e-13,-2.484519752534992989e-12,1.671967243946293855e-12
-5.815308455241952146e+01,-2.029988412522028085e+01,1.952750932835288111e+01,-2.427385099934468775e-12,-4.051177811350388343e-13,1.937594831371486537e-13
-9.292064410594333412e-02,-1.052654368694124685e+02,6.596329554102453585e+01,2.110500415099578431e-12,-2.534458649696041937e-13,4.148899549061652013e-12
-4.682993963765408552e+01,-4.034687639599868021e+02,2.934208331137428516e+01,1.149417069314717464e-12,-7.051223146377580732e-12,-1.187941201249962167e-12
1.099571907730979063e+02,9.330998050251797338e+01,1.362609221228036631e+02,4.972542144148010351e-12,1.237563896604111837e-12,2.324302565945813063e-12
-3.220305907417027935e+00,3.471260961968187786e+01,-1.004554704507407052e+02,8.872277089077719610e-14,3.584768682572906286e-12,-3.605709409254572271e-12
-9.901850658971154928e+01,-2.737995048066508161e+02,5.214124854863644032e+01,-2.107248263292065563e-12,-7.356628821179336009e-12,-3.890145146016787861e-13
