# position data <x,y,z>, velocity data <vx,vy,vz>; N=19, L=1000
5.721692250260250034e+01,4.755756111733965952e+01,-1.733891332037316602e+02,1.616018020604539622e-13,1.004629010109792520e-12,-3.016691015560174388e-12
-2.734944871309091496e+01,-7.532715224630948114e+01,-1.195450650992351740e+02,-2.680023041449528387e-12,2.332775683926898344e-13,-1.045945321327524399e-12
-6.330973823655414634e+01,-1.660240152546450076e+02,-2.234941231837281350e+02,-1.653702056423227379e-12,-2.572134347305509191e-12,-3.705366307663790285e-12
-9.826431532433957727e+01,2.026640607147215860e+02,-8.170215462725630573e+01,-3.515871558136529812e-13,2.588407690830936523e-12,-1.110895620226912745e-12
-2.530259903882818264e+02,2.013206046430651384e+02,-6.790998156559274435e+01,-4.403329335509357141e-12,2.315303412322622256e-12,7.176919034795734459e-13
-1.563667491470214372e+02,-1.174930540165606487e+02,-1.189812934705664844e+02,-1.090655905313550140e-12,-2.204816521838329405e-12,-4.502389590707173032e-12
7.954357442732479910e+01,1.874470042038357178e+02,2.267960924168308168e+02,2.078507622897612671e-12,4.113246314033961572e-12,2.240968278121726828e-12
1.648620469279874001e+01,7.770339588924501584e+01,1.862740802037883441e+02,-1.401070005267986374e-12,1.437107901532039996e-12,2.476759364107431727e-12
-4.667144505050086423e+02,-6.380212796484558169e+01,-3.850823345014708252e+02,-7.401394833035933421e-12,-2.047744084232510199e-16,-5.831159336917871630e-12
-2.175676522134363911e+00,-2.791748696875304603e+01,2.544395397582507599e+02,1.635373151101763306e-12,5.033386438170699675e-13,3.284299094726294996e-12
-4.315308426278569698e+00,7.766057366195424549e+01,-1.795083764679845046e+02,-2.985466773931021991e-13,8.789570860050407378e-13,-2.375313707481551795e-12
-1.570931875859915561e-01,-3.208350465829054254e+00,-1.261356065635196302e+02,1.794162243771004636e-12,-1.694333534794209148e-12,-1.350540265723181927e-12
-2.499246031166563853e+01,-1.424393270407267664e+02,-3.541741831193019863e+01,-5.071063552818574551e-13,-2.484519741741067536e-12,1.671967239675377993e-12
-8.266534441817594825e+01,-2.439085113807498573e+01,2.148413447507409302e+01,-2.427385094650424886e-12,-4.051177835409139922e-13,1.937594770078982131e-13
2.121936912720028090e+01,-1.078247880185914340e+02,1.078597807494110725e+02,2.110500411748230330e-12,-2.534458600174629405e-13,4.148899542932432698e-12
-3.522287740472548734e+01,-4.746735407650937759e+02,1.734599605404828893e+01,1.149417068401488459e-12,-7.051223141119762265e-12,-1.187941201444348399e-12
1.601709970840657604e+02,1.058071684622222079e+02,1.597322322870100209e+02,4.972542135449860475e-12,1.237563894982165146e-12,2.324302565817944996e-12
-2.324364206170580260e+00,7.091237917630942889e+01,-1.368667042490126562e+02,8.872276823260492103e-14,3.584768659443162848e-12,-3.605709429019134142e-12
-1.202979554333238070e+02,-3.480883341979045440e+02,4.821289580702015343e+01,-2.107248260825463867e-12,-7.356628817669619979e-12,-3.890145167164343816e-13
