# position data <x,y,z>, velocity data <vx,vy,vz>; N=19, L=1000
5.068936059523067428e+01,6.977716536478959952e+00,-5.153633838325088590e+01,1.616019063783433808e-13,1.004629028081421431e-12,-3.016691046210366882e-12
8.090436014831324485e+01,-8.474990096816684115e+01,-7.729633583549467346e+01,-2.680022965012392098e-12,2.332775271464867130e-13,-1.045945358136493981e-12
3.488026548208175370e+00,-6.212813763842090964e+01,-7.382375943856733613e+01,-1.653702064607913777e-12,-2.572134459076131846e-12,-3.705366380603017659e-12
-8.406270264420976446e+01,9.811085653781955784e+01,-3.682989757408226694e+01,-3.515871619416859507e-13,2.588407738920601701e-12,-1.110895595811868970e-12
-7.516290051134555483e+01,1.077988650791870100e+02,-9.689961373794862709e+01,-4.403329382342670678e-12,2.315303453249858545e-12,7.176918705918051914e-13
-1.123120309076374639e+02,-2.843419680622081813e+01,6.288312316915798306e+01,-1.090655969912480187e-12,-2.204816531001841481e-12,-4.502389585182525809e-12
-4.413304214592677965e+00,2.130119875347721248e+01,1.362769614449491939e+02,2.078507624819747770e-12,4.113246353894451931e-12,2.240968343426137329e-12
7.307943669102695594e+01,1.965449029662345382e+01,8.623067207331536110e+01,-1.401069975938773853e-12,1.437107880176518798e-12,2.476759397389764225e-12
-1.677509051093514643e+02,-6.379385649770162559e+01,-1.495451001719334840e+02,-7.401394851326026060e-12,-2.047783367545162388e-16,-5.831159351884794431e-12
-6.823308386982211005e+01,-4.824877678784330470e+01,1.217772877680579597e+02,1.635373136588690234e-12,5.033386292983143698e-13,3.284299145178739798e-12
7.743847412665996188e+00,4.215697678764632172e+01,-8.356264776856518495e+01,-2.985466694074068109e-13,8.789571650042709279e-13,-2.375313794689500544e-12
-7.262844561416855527e+01,6.523063662212776137e+01,-7.158341458860122941e+01,1.794162170470693740e-12,-1.694333552100618845e-12,-1.350540307488290986e-12
-4.508981393257963433e+00,-4.208245493174757001e+01,-1.029529662586962786e+02,-5.071063738513393326e-13,-2.484519722872119720e-12,1.671967227982897508e-12
1.538369525161017748e+01,-8.026983413498021136e+00,1.365763319443450285e+01,-2.427385098109483777e-12,-4.051177562701299246e-13,1.937595257071618784e-13
-6.402979002293800193e+01,-9.758738277618246570e+01,-5.972616056121015049e+01,2.110500401046858228e-12,-2.534459121428682124e-13,4.148899564230965876e-12
-8.165112633286327082e+01,-1.898544330767860799e+02,6.533034502075085470e+01,1.149417065750950149e-12,-7.051223176079701055e-12,-1.187941195043133277e-12
-4.068422870326274676e+01,5.581841593286962677e+01,6.584699193757565183e+01,4.972542156041155037e-12,1.237563946800604622e-12,2.324302553944841668e-12
-5.908131870714865563e+00,-7.388669974115113348e+01,8.778229778600593392e+00,8.872280726329558539e-14,3.584768679791280447e-12,-3.605709372924375272e-12
-3.518015985915891264e+01,-5.093301615629040668e+01,6.392630643971549631e+01,-2.107248273210642481e-12,-7.356628855449467561e-12,-3.890144873973417978e-13
