# position data <x,y,z>, velocity data <vx,vy,vz>; N=100, L=1000
-2.495483877233514249e+02,6.688765139982088215e+01,-4.558176784088057616e+02,-2.985613504211971205e-12,1.870869425091899600e-12,-6.893151208043018644e-12
5.619130126844658690e+01,4.093093440740821052e+02,-6.078675021865731054e+01,7.167438150623471579e-13,6.521233446737712800e-12,-1.460457845056750676e-12
2.114678561104015557e+02,-2.454586628338423893e+01,7.932361711174290519e+01,3.612024436387638298e-12,-2.796108511864272054e-13,1.703651528601069392e-12
-1.109704402536942913e+00,7.884892479281812427e+01,-3.581482547031810100e+02,-3.281136396317928145e-14,2.217262240210865005e-12,-6.718496921572135613e-12
-4.910532323987462746e+02,-3.234432196403036386e+01,3.171325832873157538e+02,7.463933238939162126e-12,-1.274051349838611509e-12,4.229416698955639724e-12
3.241298446254200485e+02,-1.284673983131087596e+02,1.799104564157029813e+02,4.049568236543758081e-12,-1.249886960005270631e-12,5.214133986014654632e-12
3.459749622521221113e+02,1.472705953206179288e+02,2.414926745342582421e+02,4.745309530713854923e-12,2.201665792429182033e-12,2.769186411793182433e-12
5.044581035053457185e+01,9.984662570553265937e+01,-5.209753058847260831e+01,1.347786716587245997e-12,1.289746954376024435e-12,-5.434650561512218710e-13
6.425535051448900958e+01,-6.436969391390155693e+01,-8.098733311041489458e+01,2.205489507621866165e-12,-1.943237369726247206e-12,-2.557641661349060719e-12
-2.166151854745526464e+02,1.523034925535524735e+02,1.849257884834021013e+02,-4.692127355967188654e-12,3.285660090857055170e-12,1.598580904342984129e-12
-1.031465240517594140e+02,-4.390878526866574560e+01,-1.582615582424044476e+02,-3.087309113524418347e-12,4.157502550760545785e-13,-1.666477048260977058e-12
-2.728104576203627971e+02,8.134305250314736213e+01,-9.298254205614330203e+01,-6.272523937449280122e-12,-2.515139355074432316e-13,-8.540613039139303178e-13
-1.967205790425461771e+02,-1.149043847600893571e+02,9.591712338096181156e+01,-3.555618951550332307e-12,-1.993556987151107614e-12,2.123013136471830303e-12
3.008182176328699775e+00,1.667897986252228577e+02,-4.267051016655402123e+02,-4.385608670670345502e-13,2.891291883710394981e-12,-5.921425534918017102e-12
1.091424592846331478e+02,8.251823701910340958e+01,-2.158352992725973820e+02,1.673100706998236980e-12,1.459866417556264953e-12,-2.727976084242410092e-12
-1.068795538938308738e+02,-2.147885363965229431e+02,1.469422698108948282e+02,4.879709099302119143e-14,-4.993295778962812817e-12,1.013818390675651076e-12
-1.589924919618653689e+02,-2.051638446816095041e+02,-2.501154373824155357e+02,-3.027666583663669011e-12,-3.874672349469133650e-12,-4.168519404550552538e-12
-3.597190437050187484e+02,2.146825126751273061e+01,-7.361016461063704241e+01,-4.259873247543937143e-12,3.375264854795939041e-13,-1.670924672870905549e-12
-3.584389054428448276e+02,4.688081793686367291e+02,-7.068744029457334932e+01,-4.618850061680884287e-12,6.653813598946922700e-12,-6.745133315782344205e-13
-3.435253016342489332e+02,1.468090745086113884e+02,3.952303677088923450e+01,-4.928918301368051107e-12,2.938089647773716340e-12,1.131422449355213965e-12
-1.224489781251223377e+02,6.011494220245431563e+01,1.035256737038834416e+02,-1.888895147229510188e-12,-3.446886757495143518e-13,2.488423829367681049e-12
1.439347440086699237e+02,-2.677558682523413154e+02,4.835224814874567123e+00,2.540688343458581811e-12,-4.450184978028552147e-12,1.636607338539108798e-12
2.955564097250055866e+00,-2.926450606279069007e+02,-1.123501040626137950e+02,6.036908731781744097e-13,-4.985092959310243136e-12,-2.685350085731951234e-12
-8.912797746034661373e+01,1.177686520599542916e+02,-1.561351017095991267e+02,-3.422654600644650762e-12,1.872669303796907581e-12,-1.027919582065344303e-12
-2.586499694083439636e+02,-1.562142002762895174e+02,3.897736358022565923e+02,-2.693859715991370866e-12,-1.152550725356637614e-12,4.616285607176512969e-12
3.066593206209005018e+01,1.195447688276781122e+02,2.900502049712581076e-01,7.153715170826258046e-13,1.327174572162211813e-12,-4.804300835572684031e-13
-2.038424248418210141e+02,7.993835680429282498e+00,-4.071938635895057246e+02,-4.869069862907005065e-12,-1.101201238601702290e-12,-6.506488097849668661e-12
-2.231078754258585377e+02,5.749280321124173199e+00,-3.945477967760218263e+01,-3.278565689061720801e-12,-1.817442932354477620e-12,-1.633470936783148683e-12
1.336622554612214913e+02,1.819966893266765169e+02,7.647215677470022399e+01,5.783388987721843821e-13,3.049647905557606448e-12,9.780979262443634355e-13
-3.032624485109590751e+02,-3.530761189589888431e+02,-3.003219124614541329e+02,-6.519648855294578462e-12,-5.010193497749522748e-12,-5.537080178169923088e-12
1.008388871575859724e+02,-3.394499714974415951e+02,1.300683148474549000e+02,2.904351523797301917e-12,-5.485253208157345116e-12,1.137237846105314072e-12
8.668281104260721293e+00,2.098736689150856805e+01,-4.338898250630527968e+02,1.278114101400315841e-12,-1.072856710300839423e-12,-6.714231561426683729e-12
-3.528991839418339396e+02,-1.251281215280759653e+02,1.437721726992885181e+02,-4.094682890361777265e-12,-3.604353124965894018e-12,2.257844177596845874e-12
3.041690540072984561e+00,1.378450176500830935e+02,1.653298731146982163e+02,7.231415147914891666e-13,2.642408643074010950e-12,1.790833197189207546e-12
3.150713973296965378e+02,-2.677638542295842967e+02,-1.471418106774789010e+02,6.557585402768625917e-12,-4.219844768445651300e-12,-2.985642579862443968e-12
4.021134580280324400e+01,-1.173266779146147343e+01,2.439852091323622858e+02,2.412554996439105313e-12,-2.438813734047001501e-13,2.112603481488996526e-12
2.904926888366918547e+02,-2.439693897594971190e+02,3.761917252315569726e+01,5.289816732005784690e-12,-6.153992462253301381e-12,-6.801682921773969182e-13
-4.987707334081749195e+02,1.962164768863438979e+01,3.637216855342447275e+02,7.721441470208536417e-12,-2.415570454664424251e-13,5.521700842137320591e-12
1.940925727758983044e+02,8.465327955599224197e+01,-7.145729591807180725e+01,3.683661285664503602e-12,-4.311247221951651273e-13,-2.785094395647668761e-12
-3.112692160954239284e+02,-2.266686993251676370e+02,-1.941106802535920224e+02,-5.628424106048136134e-12,-1.805263135897180768e-12,-3.441215609411991838e-12
2.290427540972958980e+02,-5.221591388739100381e+01,2.467023830170213330e+02,2.292252412772203239e-12,-2.625391283121651350e-12,3.942646499111372920e-12
2.000880017148800789e+02,-3.545349970399544191e+02,-4.680433869489520049e+01,1.380456811830290801e-12,-5.636887450705228793e-12,9.477155579699902208e-14
2.616731239505849089e+02,4.943069948381535283e+01,6.827242119935426956e+01,3.641393217823971038e-12,2.486063336134466495e-12,8.452234916060127833e-13
-6.105420803425983678e+01,2.452287874671020518e+02,-1.956497909376058715e+02,1.089142875652916301e-12,3.879650076048233702e-12,-1.856259321927566077e-12
2.587741285423267641e+02,-9.622902751190424908e+01,2.433188245903636755e+02,2.938293177873481064e-12,-8.585239165710432956e-13,4.147468775076784814e-12
2.746682982795884342e+01,1.053618869594573226e+02,-1.447126230071004329e+02,-1.500213456406632891e-12,2.816576508389912915e-12,-1.125355266034201722e-12
9.792043723703037017e+01,1.615142578450459325e+02,-4.059559321187163761e+01,2.872419162533622705e-12,4.107532184590297702e-12,-1.967044578493144834e-12
-1.445818253153236697e+02,-8.781764198209683059e+01,2.772455009089504330e+01,-2.125914042393970154e-12,-2.537796630612282749e-12,-1.061520564742644591e-12
1.888020317038831877e+02,-1.031215214006876835e+02,1.664358708312065573e+02,3.456706535910381148e-12,-2.330159424311632967e-12,4.275564916767500327e-12
3.681971002698014104e+02,3.185633078803797957e+02,4.765002231746161954e+01,5.704888494010116877e-12,7.404687365796729258e-12,-1.319980093908168050e-13
1.987015960461096711e+02,5.675955100229554517e+01,-1.134008798766587489e+02,2.600028633734456757e-12,-4.198259839347186227e-13,-3.068208651035010890e-12
-1.744187771061290277e+02,-2.189376477078259029e+02,-1.565859758459658657e+01,-2.233301098540307750e-12,-4.749503123690647906e-12,1.374649348895545692e-12
1.379587876822710371e+02,-6.270094533327166886e+01,-2.225470485163207570e+02,3.737265808461783710e-12,-1.416529817900998530e-13,-2.524122342900243064e-12
-6.710092041478959857e+01,-5.445883751907744141e+01,-1.985473313983344923e+01,-2.900395613623721462e-13,-8.173748031177063569e-13,7.613441924576139629e-13
-4.896229877057423607e+01,-3.769264991815890085e+02,-2.471434850613803462e+02,4.121229506952419741e-13,-5.393331520748141476e-12,-3.925193956042015594e-12
-1.167111165167823401e+02,-1.366761658900628795e+01,6.290506121018826491e+01,-2.729944114022850341e-12,1.241801671428759562e-12,-3.155850524680457189e-13
1.084819701066967639e+02,-3.382538009046712535e+00,-3.421428918179687457e+02,3.548536104777312474e-12,-2.487515160672722707e-13,-4.424063930734952518e-12
-1.710613765689911929e+02,-4.520691049587407520e+02,7.452785725961007302e+01,-5.088059382730785247e-12,-8.357659896611850941e-12,1.157296032523780855e-12
-2.047747234338967246e+02,-8.263945153376801045e+01,4.535562891688685738e+01,-2.035254433387364596e-12,-9.254814468305447600e-14,2.649952036231434113e-12
2.869118372426461860e+02,4.224201591764878003e+02,8.956326826810448338e+00,3.172315239974896559e-12,5.641736724416791097e-12,-1.935946067433470159e-12
-1.163082985416334623e+02,3.422154458020096399e+02,-1.800132754822398624e+02,-1.555834453660201297e-12,7.594514213300050994e-12,-4.008933079950859054e-12
1.349033980224772620e+02,-1.808398689937161237e+02,-4.610445694834319283e+02,9.205421612608516049e-13,-3.069367051271839659e-12,-6.016113536079875404e-12
8.493553640506712554e+01,9.848763654475474638e+00,1.856404613196425828e+02,3.123875158532256382e-13,1.742792034913876818e-12,3.197739848502207725e-12
-2.209954840404366792e+02,1.629600206704005814e+02,2.100912229847080823e+02,-3.151071694011266481e-12,4.574325578939516560e-12,2.204525116607109366e-12
-2.339494529506359299e+02,2.402916291046025776e+02,9.676454147677004869e+01,-5.207819106252514668e-12,2.385772819202765116e-12,2.252664544588468936e-12
-7.881123738418310154e+01,1.337669941206532798e+01,5.220112573540463785e+01,3.673354956213553291e-13,1.968793746681879557e-12,-9.811204425034174280e-13
-1.991491884250210020e+01,-1.248191565713737639e+01,-3.734814299209843824e+01,-5.147721360755099232e-13,-1.339669980080624780e-12,-3.379870372951147365e-13
9.822414821260174733e+01,-1.089628363318004602e+02,-1.276455974841474301e+02,1.876113651420464453e-12,-2.553225326337455068e-12,-8.139880058064386422e-13
-1.151849476957923599e+02,-2.867811946895789887e+00,-3.124570313179007144e+02,-9.869099968764592594e-13,-4.548427111067032763e-13,-3.851164785190306406e-12
-2.893511051944535595e+01,-1.517351956559340067e+02,-1.129051226779923667e+02,2.679938760268024250e-13,-2.507162078849204987e-12,-2.659521847908018042e-12
-1.877774533637974628e+02,6.597889978654647791e+01,-2.169967599979709973e+02,-2.205461945214072007e-12,-2.079429856918306423e-13,-2.686186154513429513e-12
1.978574216178077450e+01,3.323156693662059524e+02,-1.029793754707264384e+02,-1.766620853872163244e-13,4.580144046659487869e-12,-1.926894420793298487e-12
4.276363022536151561e+02,-4.633794246495386204e+01,-1.792117508855418464e+02,5.778497695624825605e-12,-6.270777160399355691e-13,-1.045540902616073314e-12
5.316980471178626289e+01,-3.284626200226094284e+02,1.924294161907849912e+02,-3.401685902137663282e-13,-5.855225061717279396e-12,2.138514819929780180e-12
-7.729808803336665335e+01,-3.401399662077071184e+01,-9.099249498420057591e+01,-3.453060219739985101e-12,-2.550032644094568689e-12,-9.181858882062593654e-13
-1.077984431002736159e+02,2.211412707221003870e+01,3.966415349146723912e+01,-1.750984260349548425e-12,-1.469202111989047393e-12,6.154082140767816176e-13
-1.733998788101174782e+01,-1.487051296630785835e+00,-2.374582467763939420e+01,1.748198943861448410e-12,1.119741908858599812e-12,7.162633679620436674e-13
2.904627599470295252e+01,3.105668794634832253e+01,6.167427593991038037e+01,1.333969861452443347e-12,-6.743379965511819003e-13,-3.599286982373018627e-13
-1.121362983091364498e+02,-1.022100579872899715e+02,-1.152152902860688073e+02,-1.584722300078861101e-12,-2.812790221369822261e-13,1.516378027110746029e-13
-1.223945804052233228e+02,-9.907891252840629193e+01,-1.710655984392857931e+02,-3.637434432157426537e-12,-3.241546908272503538e-12,-4.100457540596628444e-12
-6.968990966994788039e+01,4.560049765985534265e+01,4.441123949794678651e+02,-7.270363719345883321e-13,-2.167449375689434302e-13,7.851086046268505018e-12
2.135922760395067428e+02,1.008778157603423011e+02,1.158420797957917330e+02,2.609212024043336848e-12,6.727359595094940030e-13,2.125117320891906651e-12
2.302534986374832329e+02,-1.890593342904948884e+02,2.241737700178157411e+02,2.855959233318806622e-12,-2.237087734193562413e-12,2.114424123498763871e-12
-8.708749822357290782e+01,2.839589307018879936e+02,1.023913816108465191e+01,-2.423977275489535401e-12,6.543650390210431067e-12,-2.994149672117823486e-13
1.454370517850315707e+02,6.831960885716583221e+01,-4.663500846530969852e+02,4.210383020151857885e-12,2.811042100848521010e-12,8.123078291548671433e-12
1.889789442955797085e+02,-1.807724445540972624e+02,-2.178021731376026366e+02,2.676899966650217581e-12,-4.174690537979232988e-12,-1.741930879804387106e-12
1.851313211682371787e+02,1.638797888668647147e+02,-2.064252498824495774e+02,2.984985790551437552e-12,1.419095926592494691e-12,-2.662428924621968142e-12
-5.710971101107511316e+01,-1.613273928859429702e+02,-1.436799528498602854e+02,-2.214773199204660280e-12,-2.948381579068517837e-12,-2.490315506211547275e-12
-6.825661678810533317e+01,1.335493714667455833e+02,-1.467999070260732992e+02,8.421186747890079481e-13,2.974336521202990411e-13,-1.761097602745698883e-12
-6.242967838972254668e+01,4.384452059652889488e+01,8.050626369228704959e+01,-1.107679511420538492e-12,-1.250496123086981818e-12,2.794420997804160099e-12
2.450908910633906146e+02,6.195353983366506867e+01,-2.586462228054410506e+00,5.953917746305262946e-12,6.309073618387850962e-14,7.435595675929245400e-13
-1.686307005525142699e+02,-3.118019943641592135e+02,-1.866239958780362542e+02,-1.569824733218054906e-12,-5.084401017919578122e-12,-3.551886467793438631e-12
-1.624094300436699427e+02,2.541938329707635660e+02,1.637034645291059007e+02,-1.672909508232314412e-12,2.870715386855393126e-12,1.941588232647565264e-12
-1.200730159888042294e+02,-3.572509431204343855e+01,1.330196516137631875e+02,-5.074299925017090139e-13,1.339758282329471462e-12,1.467583333769703619e-12
-5.950757606228997076e+01,3.264902630202792579e+02,-1.748286196241985806e+02,-9.503497052474860940e-13,-9.759563858861568806e-12,-4.135472761203674620e-12
5.096438706904863380e+01,1.269535522831547638e+02,9.751996167374974789e+01,6.515100465459390245e-14,2.956896192323703209e-12,-1.780226100577836750e-13
-3.460079257947916886e+01,-2.011384019227624265e+02,-1.723437241165734690e+02,-1.552881530877107968e-12,-2.774985445614469208e-12,-2.067896506183885233e-12
3.215910001071391378e+01,1.164074440138738282e+02,-1.228455772185329380e+02,-1.218738249055697312e-12,3.607904916772729574e-12,-2.539487103537703511e-13
2.113272738172539107e+02,1.142535757393392686e+02,-2.683724584503641495e+02,3.899894264653777066e-12,2.819914282947870698e-12,-3.309320812369080436e-12
-1.518518351491820795e+02,2.155509376923065759e+02,-1.922159222864904038e+01,-4.043854582264970806e-12,2.754389120472192899e-12,-2.319787384089841963e-12
