# position data <x,y,z>, velocity data <vx,vy,vz>; N=19, L=1000
1.040417151929919157e+02,-1.635173252525856640e+02,-2.133598379746741713e+01,2.495964905995958217e-12,-4.273618755238729705e-12,2.976447068948931716e-12
1.813261008544949107e+02,4.544164639165124697e+00,-4.004311733206664314e+01,5.030213408609436951e-12,2.954890039125296979e-12,-6.743858349562141717e-13
-2.434573943166616061e+01,-5.694375213651492018e+00,-1.304657572561415009e+02,2.716035966777119816e-12,9.281856417245872976e-13,-3.269559235349660410e-12
-1.684664454839433176e+02,-3.931808568905820067e+01,-8.898355757889770246e+01,-5.715561195073323398e-12,3.761076032395582843e-12,-7.354212661417589684e-12
-3.605117165709865645e+01,-9.838276177248226873e+01,3.648647731695722030e+01,1.400136811311430627e-12,6.046605480624521844e-13,-3.027506585157978995e-12
6.498747958189209584e+00,1.507203797606506441e+02,-7.963192108835939109e+01,-1.301937623952761118e-12,4.798650709086561616e-12,3.894464113904026098e-13
5.283313516740749805e+01,9.606265105550181715e+01,-9.118533621462893279e+01,-4.640603663323109667e-13,4.519959150321635400e-13,1.478180482964157077e-12
6.743322367813776808e+00,-1.455262537346773115e+02,1.885036242118495409e+02,9.108896356008356842e-13,-3.842230772672339525e-12,3.189960343119474982e-12
-2.488629198954023138e+02,5.201801127848892747e+01,8.255461302449644378e+00,-6.692276704868183227e-12,2.593780497326676790e-14,1.539422820166682639e-12
-4.740651195302422138e+01,6.458222692414510391e+01,-8.271941208655746891e+01,8.587248407169778672e-13,2.378104723752300268e-12,-1.407024804363071114e-12
-1.357098206553775128e+02,8.155480423639930976e+00,-1.248511951941260349e+02,-3.697784193329293658e-12,6.411505191057319365e-13,-4.058475378089525692e-12
1.090088234378088856e+02,5.349479711334813459e+01,9.502872120142295387e+01,3.755976388318293521e-12,2.865623108924196198e-12,9.226603155673021165e-14
5.200707344676322208e+01,4.848421935277258399e+01,-2.218654454916682894e+01,1.941926750167153621e-12,-3.747813701875542855e-12,1.920038739364169492e-12
-3.755851231325555517e+01,1.147261900434599191e+01,9.568875046615148960e+01,-5.503174981580175234e-12,6.648525891135154651e-13,3.381276224315327955e-13
7.237050430786609923e+01,-7.531250062059267236e+01,1.614392518766605633e+02,8.617390203461586894e-12,-2.240070890523965397e-12,5.718225160846368207e-12
6.162091887060823581e+01,-9.962827683407478219e+01,-7.140385732296508081e+01,-2.066589053199831715e-12,-9.350013432832838599e-13,9.172142370037048692e-13
-2.065302387396840444e+01,3.020680019679079464e+01,7.414569609837572273e+01,-2.703063913299889541e-12,6.189948703636639333e-12,-2.098974069455826207e-12
1.073343302922686320e+02,-4.973581944829874857e+01,1.228820073018223695e+02,2.177429236933627563e-12,2.731873007070761147e-12,2.905017730746133288e-12
-8.659892640935542829e+01,6.819256647181305198e+01,-1.778485189118856908e+02,-9.499297052701760942e-13,1.316114299917391134e-13,-7.626589918718151803e-12
