# position data <x,y,z>, velocity data <vx,vy,vz>; N=100, L=1000
-2.212833522660297660e+02,4.917598492862953918e+01,-3.905596793911511782e+02,-2.985613517955971689e-12,1.870869430271875848e-12,-6.893151225502525820e-12
4.940583176077057459e+01,3.475723194162197842e+02,-4.696048215301643580e+01,7.167438219919909433e-13,6.521233470997135750e-12,-1.460457842142941335e-12
1.772725396041242902e+02,-2.189876854899361192e+01,6.319501548097642996e+01,3.612024450633130761e-12,-2.796108613620986133e-13,1.703651533913814389e-12
-7.990766636335926432e-01,5.785793057646753823e+01,-2.945437214114122639e+02,-3.281136442910539697e-14,2.217262247501430148e-12,-6.718496938633118641e-12
4.382851307206953493e+02,-2.028277865208852049e+01,2.770923662418268236e+02,7.463933249156017223e-12,-1.274051357830434163e-12,4.229416699575555856e-12
2.857922668736854348e+02,-1.166346211543572622e+02,1.305478441666945173e+02,4.049568259128921427e-12,-1.249886968307303585e-12,5.214133990064899265e-12
3.010507475703332716e+02,1.264272538864110942e+02,2.152765712165376897e+02,4.745309543024056158e-12,2.201665800303124382e-12,2.769186422481541384e-12
3.768620856789192430e+01,8.763649089088383448e+01,-4.695250457994347215e+01,1.347786725369699836e-12,1.289746960366555086e-12,-5.434650630812837906e-13
4.337580961975671556e+01,-4.597291445097545193e+01,-5.677394045360287578e+01,2.205489527984062799e-12,-1.943237382523940145e-12,-2.557641661902379926e-12
-1.721944506734340337e+02,1.211978928099048431e+02,1.697918988223197232e+02,-4.692127342924766172e-12,3.285660087450149450e-12,1.598580871464807110e-12
-7.391872838192173845e+01,-4.784472538266554409e+01,-1.424848902007284153e+02,-3.087309114766411862e-12,4.157502810555166622e-13,-1.666477081132474836e-12
-2.134279852445401389e+02,8.372415445258963018e+01,-8.489707718601198394e+01,-6.272523961551275415e-12,-2.515139237747364453e-13,-8.540613128456682446e-13
-1.630592576103926490e+02,-9.603122550687591286e+01,7.581839266852090020e+01,-3.555618975855950548e-12,-1.993557011637858215e-12,2.123013164375655936e-12
7.160072032418805854e+00,1.394177132891091730e+02,-3.706465052083016758e+02,-4.385608660215333878e-13,2.891291897213721854e-12,-5.921425554972488411e-12
9.330308462612904918e+01,6.869756801082735365e+01,-1.900093372855317284e+02,1.673100720580128038e-12,1.459866422386771327e-12,-2.727976106439183060e-12
-1.073415197279192910e+02,-1.675166165711465851e+02,1.373443721294391366e+02,4.879708537512724595e-14,-4.993295798769689743e-12,1.013818408377186937e-12
-1.303293367357832153e+02,-1.684820199492974950e+02,-2.106517396812543552e+02,-3.027666595720578495e-12,-3.874672362299503858e-12,-4.168519424213387754e-12
-3.193904920301378638e+02,1.827286176588245326e+01,-5.779139067837336796e+01,-4.259873273950731465e-12,3.375264846989587102e-13,-1.670924676518740345e-12
-3.147118924145843835e+02,4.058160081542692978e+02,-6.430177008848188791e+01,-4.618850069950574801e-12,6.653813609324868798e-12,-6.745133322321891552e-13
-2.968628483853316880e+02,1.189939511202152005e+02,2.881177237236490996e+01,-4.928918324129026684e-12,2.938089656528221127e-12,1.131422453527446130e-12
-1.045666606431915113e+02,6.337813660333792143e+01,7.996757150294196492e+01,-1.888895174366087028e-12,-3.446886495061625686e-13,2.488423861885873145e-12
1.198818497015223272e+02,-2.256256206637592072e+02,-1.065866423941241337e+01,2.540688350962948101e-12,-4.450184994045626779e-12,1.636607341210995072e-12
-2.759624398504698206e+00,-2.454507974996821531e+02,-8.692768581007618423e+01,6.036908769815212808e-13,-4.985092987023246926e-12,-2.685350086974489201e-12
-5.672543984096797942e+01,1.000399461729528383e+02,-1.464037068347099648e+02,-3.422654621286157369e-12,1.872669276746647926e-12,-1.027919621955581256e-12
-2.331469897990349693e+02,-1.453029128411972408e+02,3.460709006463637252e+02,-2.693859723029280396e-12,-1.152550730240861654e-12,4.616285619257497932e-12
2.389345424609744128e+01,1.069803037674784321e+02,4.838319126934063519e+00,7.153715146290148432e-13,1.327174594573058154e-12,-4.804300682804768988e-13
-1.577465614773907703e+02,1.841899351878947755e+01,-3.455964343331709756e+02,-4.869069872322486939e-12,-1.101201240849265711e-12,-6.506488114815815108e-12
-1.920694387708222450e+02,2.295515399181170935e+01,-2.399058318374915189e+01,-3.278565717188858542e-12,-1.817442929629853330e-12,-1.633470939298557670e-12
1.281870760317258942e+02,1.531254351613152664e+02,6.721242753176555595e+01,5.783389133073589899e-13,3.049647929635710438e-12,9.780979384675142101e-13
-2.415404253685483127e+02,-3.056442271503822212e+02,-2.479019434558084640e+02,-6.519648865358609517e-12,-5.010193509723413671e-12,-5.537080187574838214e-12
7.334316522164314733e+01,-2.875206524069357670e+02,1.193019956435148998e+02,2.904351530650308308e-12,-5.485253227364617073e-12,1.137237847553213965e-12
-3.431724561455621103e+00,3.114418487761744103e+01,-3.703256722267637429e+02,1.278114101556337937e-12,-1.072856713311494125e-12,-6.714231587953988734e-12
-3.141345022691645568e+02,-9.100542995902753773e+01,1.223969861129778423e+02,-4.094682909459125480e-12,-3.604353131365380866e-12,2.257844187036671818e-12
-3.804346454073157968e+00,1.128291293026216380e+02,1.483759157384380671e+02,7.231415137743795247e-13,2.642408661059834409e-12,1.790833226024832348e-12
2.529902259157059063e+02,-2.278142553509419201e+02,-1.188764999912890516e+02,6.557585418139292828e-12,-4.219844779803018825e-12,-2.985642586295311673e-12
1.737149990562470236e+01,-9.423823832631260444e+00,2.239850274318060315e+02,2.412554994739890138e-12,-2.438813769820926707e-13,2.112603509848443580e-12
2.404135820868904716e+02,-1.857090641364886778e+02,4.405837866914613699e+01,5.289816748233506035e-12,-6.153992474713290161e-12,-6.801682903145796154e-13
4.281297792438130614e+02,2.190848700542719385e+01,3.114473138819552105e+02,7.721441478286365458e-12,-2.415570374190573064e-13,5.521700856071914717e-12
1.592190646234518567e+02,8.873477077179782668e+01,-4.509059054407351397e+01,3.683661303505931538e-12,-4.311247031140731516e-13,-2.785094393346428063e-12
-2.579844869749594523e+02,-2.095781326836680023e+02,-1.615324242439943703e+02,-5.628424124543081182e-12,-1.805263145136086440e-12,-3.441215615243451983e-12
2.073418220884398124e+02,-2.736113034594112747e+01,2.093770416801662577e+02,2.292252419544248519e-12,-2.625391272276825208e-12,3.942646520376582191e-12
1.870191095996654553e+02,-3.011701447702092764e+02,-4.770154837895687905e+01,1.380456821910958567e-12,-5.636887470458098257e-12,9.477155360596177609e-14
2.271997708347258254e+02,2.589494439557078209e+01,6.027062458837238523e+01,3.641393248047610967e-12,2.486063338159806915e-12,8.452234993304794954e-13
-7.136520838083666263e+01,2.084998381897024728e+02,-1.780764393983554612e+02,1.089142871449913462e-12,3.879650094165239605e-12,-1.856259339466252775e-12
2.309570782711955701e+02,-8.810131472614500581e+01,2.040544148372087250e+02,2.938293196198764826e-12,-8.585239277243647909e-13,4.147468793965428252e-12
4.166946742267343495e+01,7.869713808215016115e+01,-1.340587966232657777e+02,-1.500213469754828665e-12,2.816576478243879331e-12,-1.125355395865335823e-12
7.072702138480060796e+01,1.226279308508287471e+02,-2.197342910615473599e+01,2.872419184857997572e-12,4.107532215775157045e-12,-1.967044577671684208e-12
-1.244556315794474841e+02,-6.379212367032960884e+01,3.777404787595572344e+01,-2.125914054712427443e-12,-2.537796654029935527e-12,-1.061520561952626181e-12
1.560771218905837543e+02,-8.106172073760403407e+01,1.259587649845416450e+02,3.456706541633209617e-12,-2.330159436123785039e-12,4.275564925932958782e-12
3.141884768596702315e+02,2.484625562843720843e+02,4.889965773389631920e+01,5.704888507575208454e-12,7.404687375318662168e-12,-1.319980070106143869e-13
1.740869225065000307e+02,6.073407629770779437e+01,-8.435390969452916465e+01,2.600028660979875299e-12,-4.198259904227489353e-13,-3.068208673776168464e-12
-1.532759417290579620e+02,-1.739737319011165937e+02,-2.867250996248423789e+01,-2.233301115154892340e-12,-4.749503148189753709e-12,1.374649351155100405e-12
1.025778013542781224e+02,-6.135990549901663371e+01,-1.986509857744173075e+02,3.737265824051465268e-12,-1.416529888874420121e-13,-2.524122362348533560e-12
-6.435509326039830569e+01,-4.672068651189517396e+01,-2.706243789167055525e+01,-2.900395758429505616e-13,-8.173748332826668476e-13,7.613441992395065494e-13
-5.286389882020420572e+01,-3.258674098590038852e+02,-2.099833683578232808e+02,4.121229511589717746e-13,-5.393331539818066715e-12,-3.925193966566242605e-12
-9.086652297420883428e+01,-2.542384948152257707e+01,6.589272933149023004e+01,-2.729944149486389452e-12,1.241801626359839639e-12,-3.155850218546586223e-13
7.488770259249605488e+01,-1.027588030287440946e+00,-3.002599341951695351e+02,3.548536115833855656e-12,-2.487515200106678776e-13,-4.424063952049942875e-12
-1.228923223946848537e+02,-3.729464882228872966e+02,6.357164563527987156e+01,-5.088059388216024260e-12,-8.357659912089736292e-12,1.157296036854074997e-12
-1.855068111393673860e+02,-8.176329099856698690e+01,2.026832676156502444e+01,-2.035254473451614015e-12,-9.254815618783373723e-14,2.649952034534922624e-12
2.568792819491617365e+02,3.690093984807943457e+02,2.728407890585427253e+01,3.172315247662827474e-12,5.641736738433606491e-12,-1.935946066375121646e-12
-1.015790926064403976e+02,2.703175886205818870e+02,-1.420603939814183718e+02,-1.555834469084698360e-12,7.594514233721561889e-12,-4.008933088706985083e-12
1.261885537166802038e+02,-1.517819322144183047e+02,-4.040895543732961528e+02,9.205421668839264543e-13,-3.069367058718612287e-12,-6.016113550912006539e-12
8.197813943744226606e+01,-6.650384166468917613e+00,1.553672092250675689e+02,3.123875250955875555e-13,1.742792033193254306e-12,3.197739868500207398e-12
-1.911640429173652365e+02,1.196545243210182292e+02,1.892208117979552071e+02,-3.151071736000499279e-12,4.574325596272922314e-12,2.204525188612746288e-12
-1.846466240973884965e+02,2.177053320724953380e+02,7.543839090253716506e+01,-5.207819124437279104e-12,2.385772837668345253e-12,2.252664548910139073e-12
-8.228883125046094449e+01,-5.262024166986592810e+00,6.148946923163604339e+01,3.673355243717485190e-13,1.968793749228699597e-12,-9.811204240664075360e-13
-1.504153145129601477e+01,2.008445342453042681e-01,-3.414839254704518368e+01,-5.147720143198475189e-13,-1.339669990649010634e-12,-3.379871833860393861e-13
8.046283417907274327e+01,-8.479125338594933226e+01,-1.199395096375836971e+02,1.876113671019314745e-12,-2.553225343459187404e-12,-8.139880162136713967e-13
-1.058417939114788453e+02,1.438219408147985323e+00,-2.759977544916908982e+02,-9.869100056224468730e-13,-4.548427136998241248e-13,-3.851164805393254212e-12
-3.147222949662525338e+01,-1.279996970604125011e+02,-8.772722247582176180e+01,2.679938951300514714e-13,-2.507162097167025544e-12,-2.659521821215605283e-12
-1.668981733970933874e+02,6.794751218193708553e+01,-1.915664265447383059e+02,-2.205461966124735431e-12,-2.079429783399657055e-13,-2.686186172102468407e-12
2.145821584955398720e+01,2.889550891489611217e+02,-8.473731601380235645e+01,-1.766620807951976223e-13,4.580144064741870125e-12,-1.926894425228926891e-12
3.729308147904864654e+02,-4.040134891896601488e+01,-1.693135337662041024e+02,5.778497711804866128e-12,-6.270777175294218863e-13,-1.045540908567367614e-12
5.639020724190126543e+01,-2.730307486241406423e+02,1.721839298804461293e+02,-3.401685929488414470e-13,-5.855225075368977753e-12,2.138514839024366549e-12
-4.460769815495997648e+01,-9.872639141971458088e+00,-8.229995763712258849e+01,-3.453060230309291436e-12,-2.550032639894708975e-12,-9.181859104133413949e-13
-9.122173863738754562e+01,3.602317764989609117e+01,3.383803614814814864e+01,-1.750984299517045808e-12,-1.469202082007864281e-12,6.154081924325393484e-13
-3.389032297889609424e+01,-1.208773534325385413e+01,-3.052674658188966461e+01,1.748198849182256138e-12,1.119741925351732841e-12,7.162635170731671000e-13
1.641747942420275308e+01,3.744069825439674304e+01,6.508174885309476565e+01,1.333969878036549280e-12,-6.743380000044107437e-13,-3.599286794741572835e-13
-9.713360885388928523e+01,-9.954716747572466318e+01,-1.166508572137320385e+02,-1.584722327418758371e-12,-2.812790532170309595e-13,1.516378129651619150e-13
-8.795870542929192482e+01,-6.839093559762596897e+01,-1.322462476048407893e+02,-3.637434462516403796e-12,-3.241546926236859883e-12,-4.100457578750570074e-12
-6.280699974509201411e+01,4.765243884443823674e+01,3.697855523039302739e+02,-7.270363746944037445e-13,-2.167449358871329000e-13,7.851086062601233064e-12
1.888906626738406942e+02,9.450897201324849561e+01,9.572342865618651331e+01,2.609212041189102254e-12,6.727359735086068033e-13,2.125117337890210149e-12
2.032159102801446409e+02,-1.678806505272244465e+02,2.041563522207145809e+02,2.855959240723997268e-12,-2.237087752728933895e-12,2.114424138521852154e-12
-6.413951670582358133e+01,2.220096830850696961e+02,1.307372292446299689e+01,-2.423977276052498855e-12,6.543650417744393067e-12,-2.994149599839903889e-13
1.055770280351873964e+02,4.170725451138878981e+01,4.567481010235582062e+02,4.210383025092713505e-12,2.811042102795691247e-12,8.123078292180461322e-12
1.636365239146552426e+02,-1.412503242768732150e+02,-2.013111778747231426e+02,2.676899982518371027e-12,-4.174690551971850119e-12,-1.741930893480627039e-12
1.568722283090050098e+02,1.504450971979244116e+02,-1.812198280024614974e+02,2.984985807737946450e-12,1.419095947180268283e-12,-2.662428936185179239e-12
-3.614228070583909869e+01,-1.334148349159738416e+02,-1.201039420175107750e+02,-2.214773210492805147e-12,-2.948381603617545686e-12,-2.490315537748734668e-12
-7.622901985426689464e+01,1.307335436416975654e+02,-1.301274590270017200e+02,8.421186706972009226e-13,2.974337111024895615e-13,-1.761097592432557822e-12
-5.194319032691341675e+01,5.568306457817133293e+01,5.405126250142527056e+01,-1.107679496369328491e-12,-1.250496094727772862e-12,2.794421023059281921e-12
1.887246882778629526e+02,6.135625490683285932e+01,-9.625798518881465426e+00,5.953917774629790699e-12,6.309073932980841750e-14,7.435595690385301980e-13
-1.537690475878685561e+02,-2.636675741477030783e+02,-1.529980102407440086e+02,-1.569824743310012597e-12,-5.084401038281807471e-12,-3.551886473216931117e-12
-1.465718655201303591e+02,2.270165468966898459e+02,1.453222975549743410e+02,-1.672909512500713190e-12,2.870715408152257403e-12,1.941588249392607304e-12
-1.152691367061161571e+02,-4.840869017497423243e+01,1.191259257918762984e+02,-5.074300049761917311e-13,1.339758269051219303e-12,1.467583375435570392e-12
-5.051054145629554881e+01,4.188848134882084651e+02,-1.356777771169675191e+02,-9.503497045005197865e-13,-9.759563835470389039e-12,-4.135472768813865503e-12
5.034759738915819582e+01,9.896038583511759157e+01,9.920531549176845942e+01,6.515101603970097013e-14,2.956896209415147729e-12,-1.780225904628156392e-13
-1.989954230795948575e+01,-1.748673985923242924e+02,-1.527667868380557081e+02,-1.552881523585231372e-12,-2.774985479817350330e-12,-2.067896533142957515e-12
4.369698974915382195e+01,8.225112714188524876e+01,-1.204414253435067081e+02,-1.218738221537887144e-12,3.607904972756372804e-12,-2.539486185392166223e-13
1.744066712167024491e+02,8.755722774214584092e+01,-2.370428606815573289e+02,3.899894285158054490e-12,2.819914288132800336e-12,-3.309320833340602623e-12
-1.135683490368817559e+02,1.894749214503836185e+02,2.740015475211474261e+00,-4.043854598925966771e-12,2.754389138416198097e-12,-2.319787384861695178e-12
