# position data <x,y,z>, velocity data <vx,vy,vz>; N=19, L=1000
5.520742750051239511e+01,-7.990271672892093591e+01,-7.957104636227580841e+01,2.495964900534246595e-12,-4.273618800583921894e-12,2.976447076217846376e-12
8.290849547646497797e+01,-5.326912824804836788e+01,-2.684856004581044786e+01,5.030213441704648916e-12,2.954890044374244258e-12,-6.743858358735285924e-13
-7.748578223125132070e+01,-2.385459995887422480e+01,-6.649586863764838540e+01,2.716035975877281894e-12,9.281855812584163809e-13,-3.269559292366596821e-12
-5.663980909339754533e+01,-1.129046444265525224e+02,5.490377653663067292e+01,-5.715561222508192553e-12,3.761076005900977322e-12,-7.354212670107756945e-12
-6.344526005897107979e+01,-1.102131229674161688e+02,9.572053422116425736e+01,1.400136788835444015e-12,6.046605126353964642e-13,-3.027506573392785983e-12
3.197154069661351983e+01,5.683336660923183814e+01,-8.725155456290421796e+01,-1.301937636117395125e-12,4.798650738079622557e-12,3.894463941415360373e-13
6.191261232935231362e+01,8.721921789346907872e+01,-1.201063718225863255e+02,-4.640603200243516304e-13,4.519959317110128540e-13,1.478180438611745403e-12
-1.107850123738044168e+01,-7.035187813986389926e+01,1.260911113695524506e+02,9.108896239391488966e-13,-3.842230797538867808e-12,3.189960387985221898e-12
-1.179265572416861261e+02,5.151053040242874914e+01,-2.186379909730715099e+01,-6.692276739742106543e-12,2.593781797907351389e-14,1.539422829304594324e-12
-6.420771607662456404e+01,1.805390824478269707e+01,-5.519055801126882699e+01,8.587248509787176097e-13,2.378104759111420347e-12,-1.407024799541097261e-12
-6.336158466687565038e+01,-4.388817996302147861e+00,-4.544593045235729534e+01,-3.697784248122559767e-12,6.411505000694619015e-13,-4.058475368720162369e-12
3.552204018736832580e+01,-2.571962660317665517e+00,9.322350881065518990e+01,3.755976393916184194e-12,2.865623244445106481e-12,9.226610047086429897e-14
1.401270517072963706e+01,1.218112967754710496e+02,-5.975266755741859726e+01,1.941926763859807112e-12,-3.747813674499609511e-12,1.920038769410835179e-12
7.011272568654334236e+01,-1.535417953291375870e+00,8.907318289432926406e+01,-5.503174987260359877e-12,6.648525632818749089e-13,3.381276645676659842e-13
-9.623126981996676932e+01,-3.148485452972975907e+01,4.956049416514993311e+01,8.617390176604093845e-12,-2.240070898842591237e-12,5.718225189226271826e-12
1.020543414705582421e+02,-8.133470048316409873e+01,-8.934942333865254227e+01,-2.066589023038306265e-12,-9.350013450720152845e-13,9.172141931769654648e-13
3.223321625740558005e+01,-9.090136657504496043e+01,1.152127423110040638e+02,-2.703063874182961448e-12,6.189948658361320479e-12,-2.098974132092141811e-12
6.473228637213115633e+01,-1.031857183097591957e+02,6.604448074871089602e+01,2.177429276062381350e-12,2.731872984330703385e-12,2.905017737972953017e-12
-6.801327205888897254e+01,6.561754973511747835e+01,-2.863204327458132425e+01,-9.499297301105894213e-13,1.316114852505882532e-13,-7.626589948153427215e-12
