# position data <x,y,z>, velocity data <vx,vy,vz>; N=100, L=1000
-2.552013948005846942e+02,7.042998468790534616e+01,-4.688692781937092491e+02,-2.985613502079837243e-12,1.870869423977568569e-12,-6.893151205083256552e-12
5.754839516277291267e+01,4.216567489797744770e+02,-6.355200383458490876e+01,7.167438139662628711e-13,6.521233442622376969e-12,-1.460457845423915066e-12
2.183069193961336225e+02,-2.507528581947259738e+01,8.254933743196043849e+01,3.612024433789901010e-12,-2.796108495417340071e-13,1.703651527554039884e-12
-1.171829949592123832e+00,8.304712362853840091e+01,-3.708691613438209629e+02,-3.281136377491633900e-14,2.217262239059044275e-12,-6.718496918815321961e-12
-4.769209050279188773e+02,-3.475663061887546945e+01,3.251406266949341557e+02,7.463933240568541527e-12,-1.274051348534254312e-12,4.229416698717514298e-12
3.317973601510840922e+02,-1.308339537361062810e+02,1.897829788609172113e+02,4.049568232348253585e-12,-1.249886958663194725e-12,5.214133985136486897e-12
3.549598051751000867e+02,1.514392635993382044e+02,2.467358951862817378e+02,4.745309528412129549e-12,2.201665791253564512e-12,2.769186409865486483e-12
5.299773069539325121e+01,1.022886526630386896e+02,-5.312653578395099174e+01,1.347786714132600656e-12,1.289746953796120742e-12,-5.434650553631117089e-13
6.843125867337479917e+01,-6.804904979421810651e+01,-8.583001164113285597e+01,2.205489504751365667e-12,-1.943237368107780288e-12,-2.557641661300574930e-12
-2.254993324412680806e+02,1.585246125133250814e+02,1.879525664555845594e+02,-4.692127354658007314e-12,3.285660094050738930e-12,1.598580910608589493e-12
-1.089920831787695477e+02,-4.312159726680715011e+01,-1.614168918191747650e+02,-3.087309111569112417e-12,4.157502529431400361e-13,-1.666477043397372757e-12
-2.846869520702612135e+02,8.086683210099735675e+01,-9.459963502082061382e+01,-6.272523933556804843e-12,-2.515139374291796340e-13,-8.540613024584997697e-13
-2.034528433042275992e+02,-1.186790165847367575e+02,9.993686949300037270e+01,-3.555618947832733833e-12,-1.993556982962054158e-12,2.123013131577774203e-12
2.177804204522303611e+00,1.722642156779009213e+02,-4.379168209358423383e+02,-4.385608670485619269e-13,2.891291881362417771e-12,-5.921425531554503630e-12
1.123103342028062883e+02,8.528237081589395530e+01,-2.210004916476079018e+02,1.673100705113357321e-12,1.459866416782440115e-12,-2.727976080900935652e-12
-1.067871607214939758e+02,-2.242429203408468084e+02,1.488618493289118589e+02,4.879709172165460495e-14,-4.993295775716246043e-12,1.013818387879471624e-12
-1.647251229944412501e+02,-2.125002096144450547e+02,-2.580081769019238322e+02,-3.027666581683010076e-12,-3.874672347285464074e-12,-4.168519401264379645e-12
-3.677847540113876335e+02,2.210732916886254884e+01,-7.677391939320733627e+01,-4.259873242860165865e-12,3.375264856988700232e-13,-1.670924672214506835e-12
-3.671843080397651988e+02,4.814066136003936549e+02,-7.196457433513084823e+01,-4.618850060321398410e-12,6.653813597158319916e-12,-6.745133314582530439e-13
-3.528577922599741896e+02,1.523720991769955049e+02,4.166528964626296982e+01,-4.928918297606901251e-12,2.938089646268993622e-12,1.131422448749999070e-12
-1.260254415927498854e+02,5.946230329442310136e+01,1.082372941084779541e+02,-1.888895142764302807e-12,-3.446886801591336704e-13,2.488423823534095196e-12
1.487453228622277948e+02,-2.761819177534631535e+02,7.934002622563522067e+00,2.540688342191930398e-12,-4.450184975484803742e-12,1.636607337964367916e-12
4.098601792110817321e+00,-3.020839132245951646e+02,-1.174345877115886339e+02,6.036908724191802580e-13,-4.985092954817318743e-12,-2.685350085439938303e-12
-9.560848494405342990e+01,1.213143932700083525e+02,-1.580813806400921919e+02,-3.422654590548955814e-12,1.872669305885160985e-12,-1.027919576700886180e-12
-2.637505653230145981e+02,-1.583964577579870081e+02,3.985141828203146588e+02,-2.693859715007821614e-12,-1.152550724425614937e-12,4.616285605011572895e-12
3.202042762731351644e+01,1.220576618161483538e+02,-6.196035956409385870e-01,7.153715172225040455e-13,1.327174568410935416e-12,-4.804300862059504038e-13
-2.130615975047956852e+02,5.908804115928507628e+00,-4.195133494235915919e+02,-4.869069861331696134e-12,-1.101201237938309901e-12,-6.506488095250418376e-12
-2.293155627271156334e+02,2.308105584593582282e+00,-4.254761897338860166e+01,-3.278565684366003872e-12,-1.817442932616531103e-12,-1.633470936210660333e-12
1.347572913312969547e+02,1.877709401342320348e+02,7.832410260998244667e+01,5.783388961538945036e-13,3.049647901525010488e-12,9.780979240514561348e-13
-3.156068531289721477e+02,-3.625624973083865257e+02,-3.108059062528633376e+02,-6.519648853640529045e-12,-5.010193495824596722e-12,-5.537080176668799495e-12
1.063380315371526734e+02,-3.498358352955719397e+02,1.322215786854531814e+02,2.904351522549590436e-12,-5.485253205056950204e-12,1.137237845379598794e-12
1.108828223750846043e+01,1.895600329813606422e+01,-4.466026556029616472e+02,1.278114101462200098e-12,-1.072856709576647644e-12,-6.714231557202621308e-12
-3.606521202563459951e+02,-1.319526598346332378e+02,1.480472100065841801e+02,-4.094682887304440172e-12,-3.604353123651451922e-12,2.257844176116246296e-12
4.410897939766451614e+00,1.428481953004055640e+02,1.687206645594785073e+02,7.231415148296487288e-13,2.642408640005147855e-12,1.790833192405508569e-12
3.274876315962778790e+02,-2.757537739933607099e+02,-1.527948728081508420e+02,6.557585400213800239e-12,-4.219844766589748004e-12,-2.985642578880671861e-12
4.477931498433203927e+01,-1.219443657903052269e+01,2.479852454413215241e+02,2.412554996779403701e-12,-2.438813725734309914e-13,2.112603476262465923e-12
3.005085101692331477e+02,-2.556214548712517001e+02,3.633133129163357466e+01,5.289816729192638746e-12,-6.153992460289667503e-12,-6.801682926109673925e-13
-4.841508359441053813e+02,1.916427981764874389e+01,3.741765598505686512e+02,7.721441471920632264e-12,-2.415570467919726996e-13,5.521700839741269970e-12
2.010672743861662468e+02,8.383698129383917319e+01,-7.673063699743697441e+01,3.683661282138995208e-12,-4.311247249958220270e-13,-2.785094396906476902e-12
-3.219261619001202348e+02,-2.300868126437181047e+02,-2.006263314492635743e+02,-5.628424103010815358e-12,-1.805263134358336446e-12,-3.441215608371895825e-12
2.333829404936519438e+02,-5.718687060913370601e+01,2.541674512610938734e+02,2.292252412401304015e-12,-2.625391285786829303e-12,3.942646495193196073e-12
2.027017801272708653e+02,-3.652079674728151417e+02,-4.662489675564650327e+01,1.380456810148986833e-12,-5.636887447331042752e-12,9.477155620771247254e-14
2.685677945417549495e+02,5.413785049906511659e+01,6.987278051235345799e+01,3.641393212761409201e-12,2.486063335650552508e-12,8.452234898122806117e-13
-5.899200796056700113e+01,2.525745773051147864e+02,-1.991644612270343373e+02,1.089142876281906580e-12,3.879650074272513610e-12,-1.856259318793131551e-12
2.643375385753321893e+02,-9.785457005595691271e+01,2.511717065201457331e+02,2.938293173842132338e-12,-8.585239141676518505e-13,4.147468771544894043e-12
2.462630232013876252e+01,1.106948367635822876e+02,-1.468433881697182812e+02,-1.500213455382382556e-12,2.816576512071348086e-12,-1.125355252068505928e-12
1.033591203844549398e+02,1.692915232113234651e+02,-4.432002603343215696e+01,2.872419158945314015e-12,4.107532179590531313e-12,-1.967044578463767402e-12
-1.486070640509364580e+02,-9.262274561846011522e+01,2.571465053093008635e+01,-2.125914040679923890e-12,-2.537796626201893048e-12,-1.061520565063953166e-12
1.953470136611532553e+02,-1.075334815214209669e+02,1.745312919917285228e+02,3.456706535148169352e-12,-2.330159422567743173e-12,4.275564915575754400e-12
3.789988249375666101e+02,3.325834581898236593e+02,4.740009523147180914e+01,5.704888491745810117e-12,7.404687364345169455e-12,-1.319980098807511259e-13
2.036245307259073627e+02,5.596464595131283914e+01,-1.192102738886899544e+02,2.600028629454200984e-12,-4.198259823832944309e-13,-3.068208647072699434e-12
-1.786473441644384934e+02,-2.279304308432332391e+02,-1.305581511173072329e+01,-2.233301095972385315e-12,-4.749503119578513361e-12,1.374649348397512887e-12
1.450349849310972559e+02,-6.296915329262076710e+01,-2.273262610448615249e+02,3.737265805706361079e-12,-1.416529805978594046e-13,-2.524122339899123557e-12
-6.765008583336704362e+01,-5.600646768859654401e+01,-1.841319219690542042e+01,-2.900395600615983212e-13,-8.173747980600883170e-13,7.613441911809394473e-13
-4.818197876125293533e+01,-3.871383170259392159e+02,-2.545755083908171343e+02,4.121229505534835432e-13,-5.393331517543722947e-12,-3.925193954223219102e-12
-1.218800351870793861e+02,-1.131636996999499800e+01,6.230752755492449779e+01,-2.729944107619173872e-12,1.241801677518070442e-12,-3.155850575127784921e-13
1.152008235979636623e+02,-3.853528000642344686e+00,-3.505194833209371836e+02,3.548536102991232430e-12,-2.487515153527110566e-13,-4.424063927549425857e-12
-1.806951873979916172e+02,-4.678936282898602030e+02,7.671909958000057372e+01,-5.088059381831494518e-12,-8.357659894157596370e-12,1.157296031842193724e-12
-2.086283058497596699e+02,-8.281468363013621570e+01,5.037308934770878466e+01,-2.035254426705431516e-12,-9.254814344730687195e-14,2.649952035619427493e-12
2.929183482931927642e+02,4.331023113006508538e+02,5.290776409984306206e+00,3.172315238685790100e-12,5.641736722031958305e-12,-1.935946067564005965e-12
-1.192541397090739821e+02,3.565950172161450382e+02,-1.876038517723662835e+02,-1.555834450432560722e-12,7.594514208775785018e-12,-4.008933078246051121e-12
1.366463668777505518e+02,-1.866514563413465737e+02,-4.724355724898040876e+02,9.205421603379937009e-13,-3.069367049924167359e-12,-6.016113533600556615e-12
8.552701578793161730e+01,1.314859321942251391e+01,1.916951117179114021e+02,3.123875139243623256e-13,1.742792034706808227e-12,3.197739845427421888e-12
-2.269617722282204113e+02,1.716211199146104605e+02,2.142653051407857561e+02,-3.151071690703481879e-12,4.574325573391654158e-12,2.204525103863697327e-12
-2.438100187021446459e+02,2.448088884914664902e+02,1.010297715871216724e+02,-5.207819103285442044e-12,2.385772816071250764e-12,2.252664543940548217e-12
-7.811571864603597248e+01,1.710444413745473469e+01,5.034345701685015939e+01,3.673354887667532436e-13,1.968793747940782614e-12,-9.811204440696758399e-13
-2.088959641561978131e+01,-1.501846763493837855e+01,-3.798809289205216544e+01,-5.147721342784288414e-13,-1.339669966570181851e-12,-3.379870213810215657e-13
1.017764109979966634e+02,-1.137971529019044681e+02,-1.291868150420199868e+02,1.876113647834381235e-12,-2.553225323049978397e-12,-8.139880038990015490e-13
-1.170535784435932385e+02,-3.729018215250033741e+00,-3.197488866612782772e+02,-9.869099955241300295e-13,-4.548427107176660575e-13,-3.851164781620495382e-12
-2.842768674731305367e+01,-1.564822953568977937e+02,-1.179407027424563381e+02,2.679938719704738948e-13,-2.507162076228376516e-12,-2.659521850571397443e-12
-1.919533093349950832e+02,6.558517729965193155e+01,-2.220828266699454616e+02,-2.205461941720372504e-12,-2.079429869144019721e-13,-2.686186151524630069e-12
1.945124741861020112e+01,3.409877853897142472e+02,-1.066277873582473461e+02,-1.766620863802618464e-13,4.580144043122973288e-12,-1.926894420255612106e-12
4.385773997289222166e+02,-4.752526117261179905e+01,-1.811913943032970735e+02,5.778497692843718370e-12,-6.270777158148208696e-13,-1.045540901719537363e-12
5.252572420889111271e+01,-3.395489942874666554e+02,1.964785134335878638e+02,-3.401685897360530152e-13,-5.855225059275743535e-12,2.138514817104386470e-12
-8.383616599805124281e+01,-3.884226812034899012e+01,-9.273100243405990284e+01,-3.453060218168517632e-12,-2.550032644595783595e-12,-9.181858859951516678e-13
-1.111137839431517733e+02,1.933231691957356446e+01,4.082937698758765066e+01,-1.750984250919631684e-12,-1.469202117937134551e-12,6.154082189915479285e-13
-1.402992079712378803e+01,6.330854477041555350e-01,-2.238964048439204291e+01,1.748198936841476340e-12,1.119741895150923784e-12,7.162633531336052597e-13
3.157203529041457557e+01,2.977988588823710003e+01,6.099278133723500872e+01,1.333969858447901018e-12,-6.743379960412305053e-13,-3.599287014775336168e-13
-1.151368361743836601e+02,-1.027426360623877599e+02,-1.149281769109286273e+02,-1.584722296427023486e-12,-2.812790186060116328e-13,1.516378020663284877e-13
-1.292817553708372884e+02,-1.052165078956371360e+02,-1.788294685635216013e+02,-3.637434427963702419e-12,-3.241546905333811530e-12,-4.100457534681306403e-12
-7.106649165252257205e+01,4.519010942120131347e+01,4.589777634973945624e+02,-7.270363717084700500e-13,-2.167449378403227897e-13,7.851086043564891035e-12
2.185325986949838182e+02,1.021515844948081337e+02,1.198658100052319355e+02,2.609212021345813629e-12,6.727359572056582682e-13,2.125117317862497406e-12
2.356610163008927827e+02,-1.932950710229648337e+02,2.281772535613495165e+02,2.855959231908568287e-12,-2.237087730854682606e-12,2.114424120984356952e-12
-9.167709452520102786e+01,2.963487801970838973e+02,9.672221200640102268e+00,-2.423977274955459049e-12,6.543650385924607980e-12,-2.994149684230118023e-13
1.534090565274079552e+02,7.364207972358531151e+01,-4.509697217785650878e+02,4.210383018343881789e-12,2.811042100185438006e-12,8.123078294839304154e-12
1.940474283553211023e+02,-1.886768685945401955e+02,-2.211003721761521774e+02,2.676899964097447738e-12,-4.174690535561747565e-12,-1.741930877704905776e-12
1.907831397219507323e+02,1.665667271787797574e+02,-2.114663342468414271e+02,2.984985787702715976e-12,1.419095923111964040e-12,-2.662428922950053966e-12
-6.130319705570136790e+01,-1.669099044552456803e+02,-1.483951549870487554e+02,-2.214773195877380388e-12,-2.948381575587100835e-12,-2.490315502721135492e-12
-6.666213618720259149e+01,1.341125369654446615e+02,-1.501343966387659066e+02,8.421186695391434202e-13,2.974336447806365581e-13,-1.761097602994928644e-12
-6.452697602083945583e+01,4.147681176837034656e+01,8.579726389715216328e+01,-1.107679514861147985e-12,-1.250496128038174368e-12,2.794420990585449001e-12
2.563641315913301355e+02,6.207299681480412801e+01,-1.178594968725628744e+00,5.953917741800014854e-12,6.309073543887882608e-14,7.435595683337076926e-13
-1.716030311347226132e+02,-3.214288783857250564e+02,-1.933491929995874159e+02,-1.569824731519838366e-12,-5.084401014412397757e-12,-3.551886466803960578e-12
-1.655769429447024663e+02,2.596292901626952698e+02,1.673796979066678432e+02,-1.672909507892012995e-12,2.870715383153807949e-12,1.941588230064491449e-12
-1.210337918327960409e+02,-3.318837512464261152e+01,1.357983967333798319e+02,-5.074299906397784665e-13,1.339758284920397839e-12,1.467583326504388487e-12
-6.130698298704074745e+01,3.080113529003162967e+02,-1.826587881164903706e+02,-9.503497058908726674e-13,-9.759563863020043236e-12,-4.135472759628779280e-12
5.108774499372910327e+01,1.325521855542530716e+02,9.718289088998211867e+01,6.515100307208472868e-14,2.956896189322302995e-12,-1.780226130666883174e-13
-3.754104264167639826e+01,-2.063926025514513753e+02,-1.762591115430763011e+02,-1.552881532252966609e-12,-2.774985439372969011e-12,-2.067896501407285549e-12
2.985152203694704909e+01,1.232387073314022814e+02,-1.233264076671931662e+02,-1.218738252679696946e-12,3.607904908539672498e-12,-2.539487180899194242e-13
2.187113943155238189e+02,1.195928453331454762e+02,-2.746383779819736333e+02,3.899894261088785338e-12,2.819914282001474295e-12,-3.309320808869064795e-12
-1.595085323543688389e+02,2.207661409215184563e+02,-2.361391376862314218e+01,-4.043854579558321135e-12,2.754389117432511347e-12,-2.319787384014490979e-12
