# position data <x,y,z>, velocity data <vx,vy,vz>; N=100, L=1000
-2.438953806418843726e+02,6.334531810962364062e+01,-4.427660786181385220e+02,-2.985613506559460104e-12,1.870869426203389217e-12,-6.893151211172745348e-12
5.483420737197182859e+01,3.969619391604005614e+02,-5.802149660347090787e+01,7.167438162353363204e-13,6.521233451084071936e-12,-1.460457844631520266e-12
2.046287928196940982e+02,-2.401644674403326363e+01,7.609789678954579983e+01,3.612024439028787220e-12,-2.796108529935371958e-13,1.703651529631281042e-12
-1.047578855159039923e+00,7.465072595484167550e+01,-3.454273480571759478e+02,-3.281136412245865383e-14,2.217262241448184626e-12,-6.718496924485347792e-12
4.948144402331023457e+02,-2.993201330747987043e+01,3.091245398786151668e+02,7.463933238737659636e-12,-1.274051350548244021e-12,4.229416699676252979e-12
3.164623290917581926e+02,-1.261008428874840774e+02,1.700379339688767857e+02,4.049568240765902800e-12,-1.249886961467079720e-12,5.214133986819641116e-12
3.369901193247928859e+02,1.431019270395610761e+02,2.362494538785697387e+02,4.745309532975005634e-12,2.201665793763705877e-12,2.769186413727743820e-12
4.789389000119153650e+01,9.740459874671263663e+01,-5.106852539136266245e+01,1.347786718865837577e-12,1.289746955221467241e-12,-5.434650571125744707e-13
6.007944234990591781e+01,-6.069033803027421925e+01,-7.614465457955117245e+01,2.205489510786131700e-12,-1.943237371612139839e-12,-2.557641661440970260e-12
-2.077310385064669731e+02,1.460823725995837208e+02,1.818990105239992658e+02,-4.692127356031439747e-12,3.285660087998112985e-12,1.598580897145164592e-12
-9.730096492120442520e+01,-4.469597327509328011e+01,-1.551062246562254074e+02,-3.087309115297528054e-12,4.157502578136444597e-13,-1.666477053348392281e-12
-2.609339631628296274e+02,8.181927290155886112e+01,-9.136544908861513647e+01,-6.272523941644824199e-12,-2.515139334761727983e-13,-8.540613054597073258e-13
-1.899883147735496891e+02,-1.111297529273153657e+02,9.189737725939227175e+01,-3.555618955584990159e-12,-1.993556991535972251e-12,2.123013141658896151e-12
3.838560148133103755e+00,1.613153815679692400e+02,-4.154933823887219546e+02,-4.385608670489938440e-13,2.891291886195959227e-12,-5.921425538442278263e-12
1.059745843625528039e+02,7.975410322086842996e+01,-2.106701068910523134e+02,1.673100709184895190e-12,1.459866418332525490e-12,-2.727976087830996663e-12
-1.069719470646579396e+02,-2.053341524458605818e+02,1.450226902873820052e+02,4.879709011258674380e-14,-4.993295782407894860e-12,1.013818393691229279e-12
-1.532598609254401083e+02,-1.978274797445572233e+02,-2.422226978565340971e+02,-3.027666585755711774e-12,-3.874672351747836099e-12,-4.168519408004978330e-12
-3.516533333896159661e+02,2.082917336655454221e+01,-7.044640982681355013e+01,-4.259873252417881606e-12,3.375264852835968809e-13,-1.670924673519885285e-12
-3.496935028432628769e+02,4.562097451334110474e+02,-6.941030625379642061e+01,-4.618850063138853932e-12,6.653813600819475430e-12,-6.745133316860599175e-13
-3.341928110011831450e+02,1.412460498373055771e+02,3.738078389427473525e+01,-4.928918305385328876e-12,2.938089649339906493e-12,1.131422450079885574e-12
-1.188725146487310269e+02,6.076758110190198892e+01,9.881405328799969823e+01,-1.888895152053188080e-12,-3.446886710858063436e-13,2.488423835470091716e-12
1.391241651526645455e+02,-2.593298187462336841e+02,1.736447006089508527e+00,2.540688344766942433e-12,-4.450184980763455205e-12,1.636607339115352377e-12
1.812526400956370187e+00,-2.832062080224334295e+02,-1.072656204130954620e+02,6.036908739277940161e-13,-4.985092964105604633e-12,-2.685350086006449586e-12
-8.264746995696876297e+01,1.142229108569646314e+02,-1.541888227669974754e+02,-3.422654610882971357e-12,1.872669298193597825e-12,-1.027919589622976097e-12
-2.535493734916569792e+02,-1.540319427928554887e+02,3.810330887800244000e+02,-2.693859717172780267e-12,-1.152550726248154542e-12,4.616285609416623081e-12
2.931143649727038891e+01,1.170318758319666017e+02,1.199704000492887834e+00,7.153715168001404952e-13,1.327174576105851323e-12,-4.804300808252684535e-13
-1.946232521757902418e+02,1.007886724615472573e+01,-3.948743777503401589e+02,-4.869069864568528996e-12,-1.101201239229037197e-12,-6.506488100628427640e-12
-2.169001881154730427e+02,9.190455057066419187e+00,-3.636194038074052060e+01,-3.278565694032560103e-12,-1.817442932001500104e-12,-1.633470937326724485e-12
1.325672195860920795e+02,1.762224385112640732e+02,7.462021093517492432e+01,5.783389014710057256e-13,3.049647909830684571e-12,9.780979285258442911e-13
-2.909180438897714112e+02,-3.435897406058833781e+02,-2.898379186671137973e+02,-6.519648857001373567e-12,-5.010193499747704341e-12,-5.537080179767776730e-12
9.533974277557128119e+01,-3.290641076932664078e+02,1.279150510081620808e+02,2.904351525116016030e-12,-5.485253211453320584e-12,1.137237846737633066e-12
6.248279971149377054e+00,2.301873048627295049e+01,-4.211769945149184196e+02,1.278114101319722075e-12,-1.072856711041749904e-12,-6.714231565897664410e-12
-3.451462476213060313e+02,-1.183035832190592345e+02,1.394971353890334740e+02,-4.094682893696722310e-12,-3.604353126233133101e-12,2.257844179280375717e-12
1.672483140549673619e+00,1.328418399938125276e+02,1.619390816605683199e+02,7.231415146312027280e-13,2.642408646285632978e-12,1.790833202277708847e-12
3.026551630581338941e+02,-2.597739344621678583e+02,-1.414887485448809059e+02,6.557585405473063041e-12,-4.219844770437229989e-12,-2.985642580927209189e-12
3.564337662196931689e+01,-1.127089900238543230e+01,2.399851728133820075e+02,2.412554996034107910e-12,-2.438813741622512291e-13,2.112603486848463293e-12
2.804768674987024610e+02,-2.323173246439028503e+02,3.890701375384512062e+01,5.289816734940858994e-12,-6.153992464365337438e-12,-6.801682917424592533e-13
4.866093691283186899e+02,2.007901555788242831e+01,3.532668112140606809e+02,7.721441471613682018e-12,-2.415570447389446495e-13,5.521700844037589526e-12
1.871178711589250838e+02,8.546957781262196363e+01,-6.618395484090385139e+01,3.683661289208724534e-12,-4.311247191558523834e-13,-2.785094394615477815e-12
-3.006122702848196582e+02,-2.232505860036236243e+02,-1.875950290559331393e+02,-5.628424109273037885e-12,-1.805263137525944833e-12,-3.441215610467555483e-12
2.247025676999314499e+02,-4.724495717056415600e+01,2.392373147654611500e+02,2.292252413431912897e-12,-2.625391280608488029e-12,3.942646503102729402e-12
1.974742232992042545e+02,-3.438620266005369217e+02,-4.698378063336289756e+01,1.380456813615347371e-12,-5.636887454264043324e-12,9.477155537890750072e-14
2.547784533495438097e+02,4.472354846769719927e+01,6.667206188306278136e+01,3.641393223177302209e-12,2.486063336569267441e-12,8.452234932766641754e-13
-6.311640810665878831e+01,2.378829976247052116e+02,-1.921351206424134261e+02,1.089142874920056897e-12,3.879650078816861334e-12,-1.856259324955238566e-12
2.532107185018906534e+02,-9.460348496335424784e+01,2.354659426538372884e+02,2.938293181649418388e-12,-8.585239189275695872e-13,4.147468778664388300e-12
3.030735733813408217e+01,1.000289371628769146e+02,-1.425818578157941374e+02,-1.500213457902905886e-12,2.816576504057838801e-12,-1.125355282536869744e-12
9.248175408262481767e+01,1.537369924689731704e+02,-3.687116039030920689e+01,2.872419166320908721e-12,4.107532189964477217e-12,-1.967044578473648737e-12
-1.405565865764317550e+02,-8.301253833730491749e+01,2.973444965012355823e+01,-2.125914044157807603e-12,-2.537796635108155993e-12,-1.061520564270649194e-12
1.822570497451106917e+02,-9.870956127652297596e+01,1.583404496682686897e+02,3.456706536717009069e-12,-2.330159426211638965e-12,4.275564918128849784e-12
3.573953755976496041e+02,3.045431575680744345e+02,4.789994940252731226e+01,5.704888496373072196e-12,7.404687367391295988e-12,-1.319980089180698320e-13
1.937786613579130233e+02,5.755445605616827720e+01,-1.075914858569965560e+02,2.600028638334553143e-12,-4.198259854383658136e-13,-3.068208655155058581e-12
-1.701902100427286371e+02,-2.099448645644307589e+02,-1.826138005838549105e+01,-2.233301101364144841e-12,-4.749503128027015444e-12,1.374649349390642167e-12
1.308825904281556234e+02,-6.243273737161995030e+01,-2.177678359818999070e+02,3.737265811297394393e-12,-1.416529830473989855e-13,-2.524122346123414925e-12
-6.655175499342270484e+01,-5.291120733975274959e+01,-2.129627408517455578e+01,-2.900395630472223278e-13,-8.173748084486129764e-13,7.613441937475338696e-13
-4.974261878014511495e+01,-3.667146813310129119e+02,-2.397114617284254621e+02,4.121229508126128143e-13,-5.393331524129230113e-12,-3.925193957942348344e-12
-1.115421978344446927e+02,-1.601886319649054613e+01,6.350259485597362641e+01,-2.729944120401936767e-12,1.241801665258424968e-12,-3.155850474354793770e-13
1.017631166119179653e+02,-2.911548016121095817e+00,-3.337663003087239417e+02,3.548536106697839256e-12,-2.487515167627768773e-13,-4.424063934195978791e-12
-1.614275657382143834e+02,-4.362445816227926798e+02,7.233661493787754182e+01,-5.088059383720637712e-12,-8.357659899264102177e-12,1.157296033262944281e-12
-2.009211410048119149e+02,-8.246421943473576732e+01,4.033816848515257192e+01,-2.035254440684436113e-12,-9.254814627059279581e-14,2.649952036580267245e-12
2.809053261895896867e+02,4.117380070476896776e+02,1.262187724336208206e+01,3.172315241335874834e-12,5.641736726939388235e-12,-1.935946067275812685e-12
-1.133624573670093980e+02,3.278358743797307966e+02,-1.724226991887642271e+02,-1.555834457855070866e-12,7.594514217173826660e-12,-4.008933081771458541e-12
1.331604291653971188e+02,-1.750282816434562676e+02,-4.496535664722405272e+02,9.205421622461131776e-13,-3.069367052702075328e-12,-6.016113538695709691e-12
8.434405701856586290e+01,6.548934089319891072e+00,1.795858109152669897e+02,3.123875177357999056e-13,1.742792034925481984e-12,3.197739851879473479e-12
-2.150291958449222420e+02,1.542989214158699554e+02,2.059171408031992314e+02,-3.151071699006799224e-12,4.574325584216674413e-12,2.204525130727227017e-12
-2.240888871933095174e+02,2.357743697116737280e+02,9.249931136510743102e+01,-5.207819109449312473e-12,2.385772822473605683e-12,2.252664545334133080e-12
-7.950675613533177000e+01,9.648954690672015388e+00,5.405879444956023150e+01,3.673355023285481142e-13,1.968793743813994694e-12,-9.811204393859855431e-13
-1.894024126855290646e+01,-9.945363647645232064e+00,-3.670819304968614460e+01,-5.147721334482650472e-13,-1.339670000258379321e-12,-3.379870685428765100e-13
9.467188542028915776e+01,-1.041285197554372957e+02,-1.261043799225831776e+02,1.876113655128229251e-12,-2.553225329658245147e-12,-8.139880077941807152e-13
-1.133163169453142984e+02,-2.006605677763199758e+00,-3.051651759676487359e+02,-9.869099983606607891e-13,-4.548427115372882466e-13,-3.851164788886977371e-12
-2.944253429944896183e+01,-1.469880959497274944e+02,-1.078695426191982705e+02,2.679938802618303917e-13,-2.507162081756891455e-12,-2.659521844501494006e-12
-1.836015973858032169e+02,6.637262227106209878e+01,-2.119106933202337189e+02,-2.205461948920290688e-12,-2.079429843736257934e-13,-2.686186157633505508e-12
2.012023690300748058e+01,3.236435533360623822e+02,-9.933096358221742150e+01,-1.766620843391469339e-13,4.580144050110221237e-12,-1.926894421288325290e-12
4.166952047729027413e+02,-4.515062375682196461e+01,-1.772321074659894009e+02,5.778497698547883981e-12,-6.270777163076287647e-13,-1.045540903623651193e-12
5.381388521563800253e+01,-3.173762457530485790e+02,1.883803189423705362e+02,-3.401685907604223988e-13,-5.855225064245224935e-12,2.138514823042205562e-12
-7.076001006549228123e+01,-2.918572512221273740e+01,-8.925398752964119353e+01,-3.453060221546785857e-12,-2.550032643505351541e-12,-9.181858909850094589e-13
-1.044831022390395390e+02,2.489593721276274607e+01,3.849893000500022566e+01,-1.750984270079991837e-12,-1.469202105174187438e-12,6.154082088425248730e-13
-2.065005497569947224e+01,-3.607188073383104765e+00,-2.510200891152620883e+01,1.748198946529923978e-12,1.119741929571525265e-12,7.162633984038724750e-13
2.652051669311965298e+01,3.233349000546400021e+01,6.235577053631597266e+01,1.333969864662539252e-12,-6.743379971152521322e-13,-3.599286948705721098e-13
-1.091357604367027960e+02,-1.016774799053281413e+02,-1.155024036630357642e+02,-1.584722304061275106e-12,-2.812790259205813213e-13,1.516378040538947899e-13
-1.155074054312240861e+02,-9.294131715533701765e+01,-1.633017283029544728e+02,-3.637434436858095645e-12,-3.241546911507624685e-12,-4.100457547520375741e-12
-6.831332768687070711e+01,4.601088589797625161e+01,4.292470264562954299e+02,-7.270363722658555882e-13,-2.167449372804347071e-13,7.851086049122134344e-12
2.086519533786682246e+02,9.960404702136472110e+01,1.118183495805508727e+02,2.609212026944909126e-12,6.727359620239344454e-13,2.125117324047338963e-12
2.248459809714187827e+02,-1.848235975516212193e+02,2.201702864693872357e+02,2.855959234687202462e-12,-2.237087737638216730e-12,2.114424126153520479e-12
-8.249790192100444131e+01,2.715690811983185995e+02,1.080605511917028672e+01,-2.423977275961849473e-12,6.543650394793846919e-12,-2.994149659103803631e-13
1.374650470393569890e+02,6.299713798958267574e+01,-4.817304475213576893e+02,4.210383021813900419e-12,2.811042101407120763e-12,8.123078288215030167e-12
1.839104602308544258e+02,-1.728680205089510480e+02,-2.145039740949316069e+02,2.676899969361876380e-12,-4.174690540527572892e-12,-1.741930882071077262e-12
1.794795026089545615e+02,1.611928505481764944e+02,-2.013841655147398910e+02,2.984985793578313556e-12,1.419095930266624984e-12,-2.662428926469366180e-12
-5.291622496019159172e+01,-1.557448813096290223e+02,-1.389647507053230697e+02,-2.214773202473356155e-12,-2.948381583014831345e-12,-2.490315510529504390e-12
-6.985109739948607910e+01,1.329862059507083814e+02,-1.434654174156445663e+02,8.421186801425419762e-13,2.974336633248082437e-13,-1.761097600487908593e-12
-6.033238076516832393e+01,4.621222941463104661e+01,7.521526347434991067e+01,-1.107679507959987202e-12,-1.250496117466690424e-12,2.794421004315368836e-12
2.338176505266883964e+02,6.183408285105289792e+01,-3.994329486169114318e+00,5.953917751064546766e-12,6.309073698243062785e-14,7.435595670623665330e-13
-1.656583699670088947e+02,-3.021751103358259911e+02,-1.798987987545886824e+02,-1.569824735012026488e-12,-5.084401021575404622e-12,-3.551886468806732458e-12
-1.592419171418362112e+02,2.487583757716620596e+02,1.600272311464219115e+02,-1.672909508752350908e-12,2.870715390726014762e-12,1.941588235486161552e-12
-1.191122401411797114e+02,-3.826181349456064140e+01,1.302409064801117893e+02,-5.074299944948073642e-13,1.339758279788223381e-12,1.467583341321779611e-12
-5.770816913970254802e+01,3.449691731323893578e+02,-1.669984511288370754e+02,-9.503497037996813190e-13,-9.759563854385423093e-12,-4.135472762840011548e-12
5.084102914116301974e+01,1.213549190062504266e+02,9.785703245151366048e+01,6.515100643914157481e-14,2.956896195476200403e-12,-1.780226067318200070e-13
-3.166054251988755297e+01,-1.958842012820948639e+02,-1.684283366808615199e+02,-1.552881529507234269e-12,-2.774985452032984845e-12,-2.067896511144433244e-12
3.446667797733923067e+01,1.095761806798812046e+02,-1.223647467861838010e+02,-1.218738245084850507e-12,3.607904925948477300e-12,-2.539487006547053770e-13
2.039431533121625080e+02,1.089143061437266056e+02,-2.621065389119600013e+02,3.899894268309343456e-12,2.819914283911626181e-12,-3.309320816064366035e-12
-1.441951379387441250e+02,2.103357344571868737e+02,-1.482927068847443941e+01,-4.043854585131827752e-12,2.754389123675446994e-12,-2.319787384217644194e-12
