# position data <x,y,z>, velocity data <vx,vy,vz>; N=17, L=1000
-2.987310752521532109e+01,2.343646842672514481e+02,-6.660913515212962466e+01,2.129369062341038047e-12,6.364547319728598532e-12,-1.206692950061168014e-13
1.114812016075796386e+01,-4.462214088770654286e+01,4.002928540304538529e+01,9.259267275131231344e-13,1.078247235055916151e-12,1.318110718354494915e-12
1.221580033811056154e+01,1.497932432342444145e+02,-1.314831064529291993e+01,3.088039352324664152e-12,4.757712130853461962e-12,3.665451744554000465e-12
1.205309571820984615e+01,-3.675393010150156670e+01,-1.039289606278446030e+02,-5.592216029555055535e-13,-2.159184907581111622e-12,-5.210305804978117763e-12
-1.181299690826687794e+02,-8.258309310480044019e+01,4.888582265699424312e+01,-2.497397585613602963e-12,-2.411272038860912085e-12,5.018858965352887256e-13
-2.571370374378406964e+01,-9.553156215074412927e+00,-6.144942745873527912e+01,-3.735474540695406208e-12,-1.746397287515509394e-12,-3.119405417836620457e-12
1.075773580154394580e+02,-1.445159860752113801e+01,-2.140988193001590503e+02,1.730220474227104422e-13,4.180692547515021191e-13,-4.365545076197731372e-12
-1.505531256145463814e+01,-1.216877470568528850e+02,1.591872334214359874e+01,4.403385829875285697e-12,-5.277455251315874411e-13,2.456033470445342380e-12
-7.169032134647173393e+01,5.598460765389891236e+01,-7.268678806763495004e+01,6.967730188244544285e-13,8.974455771138718927e-14,-1.167480832308013142e-12
-1.113046966562307887e+02,-1.408798635795129428e+02,-8.122769630203045210e+01,-1.482142146085495799e-12,-1.406933916758317494e-12,1.066782801856322769e-12
3.537659115619155159e+01,1.106092910596566128e+02,-9.556780628471267391e+01,-2.628659099611378709e-13,1.937986943243410397e-12,-9.607852110168799560e-13
-1.267749180561387874e+02,-5.649542972604669977e+00,-3.819906932287205681e+00,-2.842902358046369598e-12,2.229554981149603906e-13,2.187348597696282975e-12
9.958931395770790118e+01,1.199828410796993410e+02,4.646529472147712170e+00,2.581937953326748596e-12,-4.835804217109246426e-14,-4.430125398859440716e-12
-2.197849444283167202e+02,-1.396165292123041297e+02,-2.625309972895618671e+01,-5.523141281078210948e-12,-1.977068522005126891e-12,-3.749390493909364467e-12
1.411012651931284836e+02,7.554010240580467439e+01,1.047277137737425221e+02,6.398195296057685123e-12,3.274094931272208220e-13,2.160346800279225508e-12
9.285998949722373652e+01,7.566556579347057720e+01,-8.982322930450995102e+01,1.561680903085162532e-12,-8.357408164415703425e-13,6.389956483375342745e-14
-1.429950772103557881e+02,3.051143122820942821e+01,-3.013518560943806079e+01,-5.213752033780586049e-12,2.542649139820473639e-12,2.310732471878384052e-13
