# position data <x,y,z>, velocity data <vx,vy,vz>; N=19, L=1000
8.041222114621733397e+01,-1.230586438348141201e+02,-4.951423984420038948e+01,2.495964913655437836e-12,-4.273618773094977421e-12,2.976447071523682834e-12
1.337046789805588105e+02,-2.343000932526840785e+01,-3.365865413535311035e+01,5.030213422870614746e-12,2.954890040029161839e-12,-6.743858378007777315e-13
-5.005866332261217622e+01,-1.448158086526002641e+01,-9.951258546534711513e+01,2.716035972087931157e-12,9.281856284907340978e-13,-3.269559249169501402e-12
-1.143567827831596162e+02,-7.492448513837476298e+01,-1.936065398560841544e+01,-5.715561207692001609e-12,3.761076021432370919e-12,-7.354212660224919641e-12
-4.930637577933588034e+01,-1.041071301829499873e+02,6.514811776791910347e+01,1.400136802788454623e-12,6.046605351596844872e-13,-3.027506584809952042e-12
1.882429278788537985e+01,1.052911799385269376e+02,-8.331884056299153940e+01,-1.301937630420643848e-12,4.798650733680647787e-12,3.894464080875455487e-13
5.722643069235678581e+01,9.178357052771656299e+01,-1.051793858184055779e+02,-4.640603472062500319e-13,4.519959197447311947e-13,1.478180466348764088e-12
-1.880140684542572105e+00,-1.091515559384050107e+02,1.583040213321261831e+02,9.108896324518683463e-13,-3.842230785232708773e-12,3.189960356996298943e-12
-1.855066154631328175e+02,5.177245604491210429e+01,-6.318374354035038998e+00,-6.692276715877724536e-12,2.593780871315318388e-14,1.539422823287735256e-12
-5.553612682499215936e+01,4.206852439327084170e+01,-6.939899878275346623e+01,8.587248370469977140e-13,2.378104732167702201e-12,-1.407024798048810324e-12
-1.007026098507040928e+02,2.085658570014090163e+00,-8.642929290426316413e+01,-3.697784211660579730e-12,6.411505157265408067e-13,-4.058475386094562031e-12
7.345070261248530130e+01,2.636572007789879279e+01,9.415523146606332716e+01,3.755976401240097883e-12,2.865623120562283297e-12,9.226603916154473567e-14
3.362270174001234579e+01,8.396506332463974331e+01,-4.036370075057222095e+01,1.941926758034630390e-12,-3.747813698437299592e-12,1.920038748542841027e-12
1.454047375204692472e+01,5.178407644172398072e+00,9.248766948945248600e+01,-5.503175018112783894e-12,6.648526478583755288e-13,3.381277066296232257e-13
-9.210999381903864247e+00,-5.410557513605079549e+01,1.073043691902249748e+02,8.617390201005488938e-12,-2.240070901512863944e-12,5.718225178354153974e-12
8.118547825496297321e+01,-9.077654633236524262e+01,-8.008719583462044511e+01,-2.066589050105756979e-12,-9.350013456819753601e-13,9.172142235008230902e-13
4.937092382391186085e+00,-2.839392581114738690e+01,9.401684735960694184e+01,-2.703063888955713698e-12,6.189948664264247736e-12,-2.098974142612557249e-12
8.672043816851062559e+01,-7.559867379345578797e+01,9.537997835077072750e+01,2.177429254593455427e-12,2.731873001180419718e-12,2.905017735115844928e-12
-7.760586792682040880e+01,6.694659076894920702e+01,-1.056469985345979268e+02,-9.499297147989524288e-13,1.316114439107887165e-13,-7.626589938270762779e-12
