# position data <x,y,z>, velocity data <vx,vy,vz>; N=19, L=1000
5.678272709812511465e+01,-8.259996218029850468e+01,-7.769249595465967673e+01,2.495964901488104587e-12,-4.273618799692887623e-12,2.976447077093685242e-12
8.608325695102844577e+01,-5.140418331399992979e+01,-2.727419092539176759e+01,5.030213440643406886e-12,2.954890044223277333e-12,-6.743858362753632809e-13
-7.577158730006254928e+01,-2.326878628212304179e+01,-6.855941345462268544e+01,2.716035978037532726e-12,9.281855848331042572e-13,-3.269559289163387558e-12
-6.024711995331993819e+01,-1.105308844761120497e+02,5.026224962500172921e+01,-5.715561222005648019e-12,3.761076007192784638e-12,-7.354212668642115684e-12
-6.256157979560172322e+01,-1.098314984250370969e+02,9.380975819761644630e+01,1.400136790033683189e-12,6.046605137034057846e-13,-3.027506575333583940e-12
3.114983770165724408e+01,5.986197994180825788e+01,-8.700575994134086955e+01,-1.301937636345882161e-12,4.798650738291460765e-12,3.894463944926327574e-13
6.161972598462285333e+01,8.750448993723203728e+01,-1.191734352054004660e+02,-4.640603212341174127e-13,4.519959307128686400e-13,1.478180440068342001e-12
-1.050360370645366537e+01,-7.277685800517360803e+01,1.281044182521604569e+02,9.108896249249700683e-13,-3.842230797824182112e-12,3.189960386153080657e-12
-1.221503108885003854e+02,5.152690075820043347e+01,-2.089221004885640909e+01,-6.692276737338338263e-12,2.593781706250412498e-14,1.539422828853712833e-12
-6.366574174374545692e+01,1.955482176501729441e+01,-5.607858556221511037e+01,8.587248508241553984e-13,2.378104754408795571e-12,-1.407024797043485784e-12
-6.569539875069673940e+01,-3.984163216461976909e+00,-4.800739059752773130e+01,-3.697784248777185172e-12,6.411505031909330571e-13,-4.058475371610127058e-12
3.789258157647300607e+01,-7.633574426938830593e-01,9.328174150055083658e+01,3.755976396035779584e-12,2.865623243457146272e-12,9.226609943785350581e-14
1.523832995747818053e+01,1.194459071931363212e+02,-5.854085712713217760e+01,1.941926763716481915e-12,-3.747813676176332885e-12,1.920038769241536591e-12
6.663945995980598980e+01,-1.115803889712462693e+00,8.928658828854186424e+01,-5.503174990782154844e-12,6.648525624472700676e-13,3.381276642640746445e-13
-9.079250292343488127e+01,-3.289864956515667416e+01,5.316948635701018588e+01,8.617390177807344369e-12,-2.240070899015369395e-12,5.718225188529235642e-12
1.007500375291117933e+02,-8.192481584954657592e+01,-8.877053412833264190e+01,-2.066589025044107775e-12,-9.350013443828672055e-13,9.172141944808666626e-13
3.052720851965679927e+01,-8.699465152965238701e+01,1.138879988799661191e+02,-2.703063875371819110e-12,6.189948659429906160e-12,-2.098974133312622975e-12
6.610654586587054382e+01,-1.014615280328242051e+02,6.787794934915791600e+01,2.177429274778182641e-12,2.731872985501704365e-12,2.905017738200611459e-12
-6.861280930440008774e+01,6.570061481252292879e+01,-3.344547797946948720e+01,-9.499297301452342737e-13,1.316114828785796386e-13,-7.626589948609127800e-12
