# position data <x,y,z>, velocity data <vx,vy,vz>; N=100, L=1000
-2.627387375643342580e+02,7.515309573541941290e+01,-4.862714112318483899e+02,-2.985613499546538052e-12,1.870869422508108464e-12,-6.893151201398922210e-12
5.935785368547405483e+01,4.381199555089565933e+02,-6.723900865685125439e+01,7.167438126362620651e-13,6.521233437462015564e-12,-1.460457845869185017e-12
2.274256704363373842e+02,-2.578117852964966872e+01,8.685029785592158191e+01,3.612024430490633784e-12,-2.796108475305447160e-13,1.703651526234050670e-12
-1.254664011686011271e+00,8.864472207293879080e+01,-3.878303701901601244e+02,-3.281136345445037470e-14,2.217262237667988209e-12,-6.718496915345127231e-12
-4.580778018619940326e+02,-3.797304215502985869e+01,3.358180179041281121e+02,7.463933242755767010e-12,-1.274051346966350829e-12,4.229416698186279360e-12
3.420207141732062723e+02,-1.339893609629135653e+02,2.029463421186354140e+02,4.049568226967714311e-12,-1.249886956965345934e-12,5.214133983983520716e-12
3.669395957325034487e+02,1.569974879675766033e+02,2.537268560501437094e+02,4.745309525525965530e-12,2.201665789756775539e-12,2.769186407448566919e-12
5.640029114756765694e+01,1.055446886046170505e+02,-5.449854270877744966e+01,1.347786710560882633e-12,1.289746953004925920e-12,-5.434650541850590943e-13
7.399913621065813629e+01,-7.295485763039707194e+01,-9.228691634870011740e+01,2.205489501412769799e-12,-1.943237366392773557e-12,-2.557641661286169547e-12
-2.373448617244957290e+02,1.668194391358041173e+02,1.919882704347896549e+02,-4.692127351450038532e-12,3.285660098279473226e-12,1.598580917145988109e-12
-1.167861620088301464e+02,-4.207201326983086886e+01,-1.656240032409186256e+02,-3.087309108832510165e-12,4.157502506945090146e-13,-1.666477037229568980e-12
-3.005222779924504266e+02,8.023187155930942538e+01,-9.675575896966041967e+01,-6.272523928735413813e-12,-2.515139398539703890e-13,-8.540613006929172853e-13
-2.124291956426494608e+02,-1.237118590056726077e+02,1.052965309618526817e+02,-3.555618943242698921e-12,-1.993556977699514138e-12,2.123013125521997460e-12
1.070633575562636608e+00,1.795634384081286612e+02,-4.528657799532632566e+02,-4.385608669811051561e-13,2.891291878434815960e-12,-5.921425527282897710e-12
1.165341674220583315e+02,8.896788254265128160e+01,-2.278874148048020061e+02,1.673100702991603506e-12,1.459866415769432045e-12,-2.727976076747373818e-12
-1.066639698230581956e+02,-2.368487655907430849e+02,1.514212886783832346e+02,4.879709259028769975e-14,-4.993295771654978259e-12,1.013818384429077934e-12
-1.723686310322543704e+02,-2.222820295186337205e+02,-2.685318295852073902e+02,-3.027666579205643319e-12,-3.874672344520990924e-12,-4.168519397121156357e-12
-3.785390344063303019e+02,2.295943303801391266e+01,-8.099225910147906404e+01,-4.259873236807439754e-12,3.375264860221254817e-13,-1.670924671432181182e-12
-3.788448448317988095e+02,4.982045259043107421e+02,-7.366741972217893419e+01,-4.618850058623075443e-12,6.653813594910497799e-12,-6.745133312847444383e-13
-3.653011130835704989e+02,1.597894653972717833e+02,4.452162681175806824e+01,-4.928918292908285150e-12,2.938089644435888279e-12,1.131422448046834763e-12
-1.307940595368937124e+02,5.859211807121596394e+01,1.145194546312766306e+02,-1.888895137196232641e-12,-3.446886856387065675e-13,2.488423816192751342e-12
1.551594279967086720e+02,-2.874166504144542387e+02,1.206570636448625677e+01,2.540688340610321081e-12,-4.450184972355463970e-12,1.636607337220573208e-12
5.622652049708227295e+00,-3.146690500074849410e+02,-1.242138992426893225e+02,6.036908714317671271e-13,-4.985092949267417470e-12,-2.685350085037639335e-12
-1.042491615624611825e+02,1.260420482185544273e+02,-1.606764192012773265e+02,-3.422654579888286411e-12,1.872669305417129027e-12,-1.027919571863932604e-12
-2.705513598731448610e+02,-1.613061343975413990e+02,4.101682455048357383e+02,-2.693859713801016799e-12,-1.152550723211514534e-12,4.616285602249006138e-12
3.382642171451874447e+01,1.254081857898014647e+02,-1.832475337403585369e+00,7.153715173088312274e-13,1.327174563524997642e-12,-4.804300895842264045e-13
-2.253538277175637461e+02,3.128762031888294270e+00,-4.359393305283596760e+02,-4.869069859314718800e-12,-1.101201237055585806e-12,-6.506488092036391950e-12
-2.375924791154528748e+02,-2.280127398048950482e+00,-4.667140469947922554e+01,-3.278565678502764725e-12,-1.817442932829806175e-12,-1.633470935486497028e-12
1.362173391505015729e+02,1.954699411994089360e+02,8.079336371760743418e+01,5.783388927659352795e-13,3.049647896379393336e-12,9.780979214294446504e-13
-3.320660592816132066e+02,-3.752110017687954269e+02,-3.247845646371523003e+02,-6.519648851571871502e-12,-5.010193493438986025e-12,-5.537080174801884357e-12
1.136702240397431609e+02,-3.636836536842943133e+02,1.350925971338668887e+02,2.904351521019516329e-12,-5.485253201204451013e-12,1.137237844325727073e-12
1.431495041527659495e+01,1.624751850908036488e+01,-4.635530963108116680e+02,1.278114101473566965e-12,-1.072856708629740715e-12,-6.714231551913615546e-12
-3.709893686670004058e+02,-1.410520442395318810e+02,1.537472597454360255e+02,-4.094682883482961870e-12,-3.604353121920702506e-12,2.257844174275246387e-12
6.236507806196830650e+00,1.495190988254445870e+02,1.732417198055970573e+02,7.231415149261458298e-13,2.642408636159377988e-12,1.790833186420282294e-12
3.440426106111796685e+02,-2.864070003398306312e+02,-1.603322889795919934e+02,6.557585397079146801e-12,-4.219844764303034665e-12,-2.985642577658186561e-12
5.086994056071470283e+01,-1.281012829316772539e+01,2.533186271715300109e+02,2.412554997241519378e-12,-2.438813713220046191e-13,2.112603469554693950e-12
3.138629386046265495e+02,-2.711575416813462880e+02,3.461420964837541447e+01,5.289816725676440173e-12,-6.153992457840944702e-12,-6.801682931538385968e-13
-4.646576393204149440e+02,1.855445598593705370e+01,3.881163922653298641e+02,7.721441474106830234e-12,-2.415570484189048902e-13,5.521700836594064228e-12
2.103668765228931932e+02,8.274858360309229965e+01,-8.376175844053602759e+01,3.683661277500872344e-12,-4.311247284389297723e-13,-2.785094398778126115e-12
-3.361354229643615668e+02,-2.346442970640663646e+02,-2.093138663738246805e+02,-5.628424099188685974e-12,-1.805263132434931496e-12,-3.441215607037709638e-12
2.391698556885489779e+02,-6.381481291283935064e+01,2.641208755752069237e+02,2.292252412613706468e-12,-2.625391289505951679e-12,3.942646490160684964e-12
2.061868180057251436e+02,-3.794385947070232419e+02,-4.638564083544900996e+01,1.380456808093917792e-12,-5.636887443107000526e-12,9.477155674910257473e-14
2.777606886490657416e+02,6.041405185116239096e+01,7.200659292434295367e+01,3.641393206547926515e-12,2.486063334873583132e-12,8.452234873862602434e-13
-5.624240786135484882e+01,2.623689637552375871e+02,-2.038506882688124620e+02,1.089142875786497287e-12,3.879650077144007291e-12,-1.856259312567712100e-12
2.717554186071962476e+02,-1.000219601074869473e+02,2.616422157496590444e+02,2.938293168219891132e-12,-8.585239108720375675e-13,4.147468767012099383e-12
2.083893231212368846e+01,1.178054365121961524e+02,-1.496844083490910009e+02,-1.500213454489608500e-12,2.816576516081325422e-12,-1.125355236394802732e-12
1.106106979040800695e+02,1.796612103521892436e+02,-4.928593646188375743e+01,2.872419154364643853e-12,4.107532173375977493e-12,-1.967044578235656192e-12
-1.539740490266246979e+02,-9.902955045429754932e+01,2.303478445009611519e+01,-2.125914038299864350e-12,-2.537796620621499587e-12,-1.061520565450164521e-12
2.040736562688282447e+02,-1.134160950108205839e+02,1.853251868692734377e+02,3.456706534315889139e-12,-2.330159420436506670e-12,4.275564914281064068e-12
3.934011244881822904e+02,3.512769919316253890e+02,4.706685911542689382e+01,5.704888488938150707e-12,7.404687362533152775e-12,-1.319980104983620921e-13
2.101884436204002782e+02,5.490477255461481576e+01,-1.269561325599909196e+02,2.600028624331646338e-12,-4.198259802960233552e-13,-3.068208642014769888e-12
-1.842854335683957459e+02,-2.399208083453769405e+02,-9.585438482788816827e+00,-2.233301092897291304e-12,-4.749503114407027024e-12,1.374649347680950516e-12
1.544699145883272138e+02,-6.332676390164542113e+01,-2.336985444077827481e+02,3.737265802249076506e-12,-1.416529790632999482e-13,-2.524122336203549172e-12
-6.838230638808089168e+01,-5.806997456680651482e+01,-1.649113761007441781e+01,-2.900395586842618724e-13,-8.173747916718152593e-13,7.613441895095540737e-13
-4.714155208259455776e+01,-4.007540741426058162e+02,-2.644848728248575185e+02,4.121229503516886827e-13,-5.393331513527150381e-12,-3.925193951921260276e-12
-1.287719267278338293e+02,-8.181374459580249336e+00,6.151081599916354747e+01,-2.729944098292497996e-12,1.241801686079980683e-12,-3.155850647812149890e-13
1.241592949146832296e+02,-4.481514653889999700e+00,-3.616882719825943582e+02,3.548536100857819732e-12,-2.487515142935176923e-13,-4.424063923640141202e-12
-1.935402685007627213e+02,-4.889929927244268129e+02,7.964075600524473941e+01,-5.088059380699635982e-12,-8.357659891129328537e-12,1.157296030994186174e-12
-2.137664157190890819e+02,-8.304832642223126982e+01,5.706303658652154809e+01,-2.035254418778076645e-12,-9.254814224725431510e-14,2.649952034422372342e-12
3.009270296902669202e+02,4.473451807927269215e+02,4.033758538893916223e-01,3.172315237084812721e-12,5.641736719035276816e-12,-1.935946067695217489e-12
-1.231819279248980479e+02,3.757677790888646427e+02,-1.977246201544682833e+02,-1.555834447708786231e-12,7.594514203310205276e-12,-4.008933076203438458e-12
1.389703253488360133e+02,-1.944002394676926144e+02,-4.876235764912314039e+02,9.205421591958683110e-13,-3.069367048240342671e-12,-6.016113530489443897e-12
8.631565495951792855e+01,1.754836597171286883e+01,1.997679789071237337e+02,3.123875114389539335e-13,1.742792034122266184e-12,3.197739841784889248e-12
-2.349168231377855705e+02,1.831692522239867458e+02,2.198307479808094627e+02,-3.151071688084063412e-12,4.574325566148322724e-12,2.204525089231106551e-12
-2.569574396957186195e+02,2.508319009983619026e+02,1.067167450658496932e+02,-5.207819099572126493e-12,2.385772812150554409e-12,2.252664543221676162e-12
-7.718836034727006279e+01,2.207477043815511308e+01,4.786656539010365208e+01,3.673354810147200711e-13,1.968793746733420422e-12,-9.811204441156144542e-13
-2.218916650807583935e+01,-1.840053690824749566e+01,-3.884135939217649991e+01,-5.147721324310401938e-13,-1.339669955818410701e-12,-3.379870103123165476e-13
1.065127613682969070e+02,-1.202429083191030799e+02,-1.312417717803822939e+02,1.876113643318928691e-12,-2.553225318717679715e-12,-8.139880014667111881e-13
-1.195450861035431416e+02,-4.877293238666782216e+00,-3.294713604421839364e+02,-9.869099938781640010e-13,-4.548427102640074737e-13,-3.851164777075045019e-12
-2.775112172928384879e+01,-1.628117616175262583e+02,-1.246548095017277831e+02,2.679938669559679490e-13,-2.507162073047377538e-12,-2.659521853144614157e-12
-1.975211172866335971e+02,6.506021398025237090e+01,-2.288642488906025392e+02,-2.205461937339266531e-12,-2.079429884695425949e-13,-2.686186147688340064e-12
1.900525442503042939e+01,3.525506067440623497e+02,-1.114923365400953656e+02,-1.766620874946718138e-13,4.580144038495490681e-12,-1.926894419580565276e-12
4.531655296880774131e+02,-4.910835278222002387e+01,-1.838309188577856048e+02,5.778497689345319528e-12,-6.270777155533026500e-13,-1.045540900612818171e-12
5.166695020636782232e+01,-3.543308266335974963e+02,2.018773097494777176e+02,-3.401685891644749985e-13,-5.855225056161361676e-12,2.138514813722731974e-12
-9.255360328000040226e+01,-4.527996345465601280e+01,-9.504901236160085887e+01,-3.453060216376798381e-12,-2.550032645364385442e-12,-9.181858837711853103e-13
-1.155342383755515385e+02,1.562323669976259843e+01,4.238300832970118392e+01,-1.750984241226811863e-12,-1.469202125011990943e-12,6.154082252349690594e-13
-9.616498038536020587e+00,3.459934409801134869e+00,-2.058139492280364991e+01,1.748198928479201576e-12,1.119741884556968436e-12,7.162633438936816673e-13
3.493971434252760133e+01,2.807748314569357007e+01,6.008412185788564841e+01,1.333969854503885682e-12,-6.743379952897412607e-13,-3.599287054792103684e-13
-1.191375533176804709e+02,-1.034527401521377783e+02,-1.145453590782662019e+02,-1.584722291877184382e-12,-2.812790138633760336e-13,1.516378020670139005e-13
-1.384646553134578539e+02,-1.133999683772106266e+02,-1.891812953799963282e+02,-3.637434423028250130e-12,-3.241546901913731505e-12,-4.100457528055996017e-12
-7.290193429531397840e+01,4.464292510222579580e+01,4.787982548468606865e+02,-7.270363714284788033e-13,-2.167449381848327106e-13,7.851086040123538574e-12
2.251196955615536979e+02,1.038499428008521619e+02,1.252307836090414384e+02,2.609212018151327729e-12,6.727359543100061072e-13,2.125117313969082259e-12
2.428710398480609456e+02,-1.989427199898802598e+02,2.335152316123131016e+02,2.855959230111391986e-12,-2.237087726507650174e-12,2.114424117899877996e-12
-9.779655625897515847e+01,3.128685795118929605e+02,8.916331916602898033e+00,-2.423977274118107508e-12,6.543650380620269489e-12,-2.994149699331787960e-13
1.640383961784050086e+02,8.073870754333151467e+01,-4.304625712695584525e+02,4.210383015797559754e-12,2.811042099130401447e-12,8.123078299176074781e-12
2.008054070944320699e+02,-1.992161006415806241e+02,-2.254979708883040246e+02,2.676899960936786982e-12,-4.174690532517660711e-12,-1.741930875127296483e-12
1.983188977854556185e+02,1.701493115847439128e+02,-2.181877800613685849e+02,2.984985784111683002e-12,1.419095918726468315e-12,-2.662428920936988373e-12
-6.689451177206488808e+01,-1.743532532048703843e+02,-1.546820911609694349e+02,-2.214773191455541021e-12,-2.948381571615802675e-12,-2.490315499097007620e-12
-6.453616206506740127e+01,1.348634242805792098e+02,-1.545803827871703504e+02,8.421186651988340518e-13,2.974336389363504696e-13,-1.761097601370825750e-12
-6.732337287203397125e+01,3.831986665154774130e+01,9.285193081528035464e+01,-1.107679519013065353e-12,-1.250496132936777942e-12,2.794420980747187766e-12
2.713951189491313016e+02,6.223227278762414016e+01,6.985613796045399004e-01,5.953917736176672221e-12,6.309073457690715045e-14,7.435595696274455346e-13
-1.755661385728318749e+02,-3.342647237377319698e+02,-2.023161224921231565e+02,-1.569824729397198807e-12,-5.084401009959099677e-12,-3.551886465526691123e-12
-1.698002934785307900e+02,2.668765664079794533e+02,1.722813424029512248e+02,-1.672909507478533356e-12,2.870715378447881720e-12,1.941588227042778861e-12
-1.223148262863735454e+02,-2.980608286743784419e+01,1.395033902056273121e+02,-5.074299884632241388e-13,1.339758288182457892e-12,1.467583317460895955e-12
-6.370619221934696697e+01,2.833728060571187939e+02,-1.930990127697968148e+02,-9.503497041493470833e-13,-9.759563873682454647e-12,-4.135472759622254731e-12
5.125222222235052527e+01,1.400170299069919224e+02,9.673346316982764392e+01,6.515100125646275241e-14,2.956896185439789022e-12,-1.780226167958441456e-13
-4.146137606196334247e+01,-2.133982033715762441e+02,-1.814796280980031327e+02,-1.552881534054251953e-12,-2.774985431267765461e-12,-2.067896495311034713e-12
2.677475139528953463e+01,1.323470583986023712e+02,-1.239675149520207924e+02,-1.218738256861512976e-12,3.607904898642809475e-12,-2.539487260929973182e-13
2.285568883031167218e+02,1.267118714555842445e+02,-2.829929373474528234e+02,3.899894256685945275e-12,2.819914280867214593e-12,-3.309320804471601406e-12
-1.697174619535551585e+02,2.277197452185124575e+02,-2.947034248840114756e+01,-4.043854576163133269e-12,2.754389113638349391e-12,-2.319787383932381590e-12
