# position data <x,y,z>, velocity data <vx,vy,vz>; N=17, L=1000
-1.105813172665968125e+01,2.906014380282875891e+02,-6.767536170988384470e+01,2.129369064606800856e-12,6.364547310650333315e-12,-1.206692932364412019e-13
1.932955249812239629e+01,-3.509481376592116675e+01,5.167603166215549493e+01,9.259267225124770582e-13,1.078247234686852436e-12,1.318110709570238687e-12
3.950152862718393010e+01,1.918320988008981374e+02,1.923939845464605725e+01,3.088039353783369697e-12,4.757712122478934383e-12,3.665451737804955491e-12
7.111847547190690122e+00,-5.583235685032666851e+01,-1.499669064175024289e+02,-5.592216090090429925e-13,-2.159184899931126405e-12,-5.210305794570798675e-12
-1.401968225398447885e+02,-1.038889464518244949e+02,5.332045593335438838e+01,-2.497397580792845648e-12,-2.411272032318991845e-12,5.018858877028150977e-13
-5.872013004485315690e+01,-2.498421662796219422e+01,-8.901230438656345711e+01,-3.735474539001065664e-12,-1.746397283066271284e-12,-3.119405416302458511e-12
1.091061703041532525e+02,-1.075756404065806571e+01,-2.526725105822207809e+02,1.730220430920803088e-13,4.180692562982722588e-13,-4.365545069009364635e-12
2.385273733876283231e+01,-1.263508744285485648e+02,3.762008599613078985e+01,4.403385825902976988e-12,-5.277455134164112898e-13,2.456033467047052183e-12
-6.553367721956151115e+01,5.677758507657296150e+01,-8.300257781262320123e+01,6.967730240887897704e-13,8.974454877745367954e-14,-1.167480827316772812e-12
-1.244008146854291539e+02,-1.533114462311419288e+02,-7.180166819295286018e+01,-1.482142143772195551e-12,-1.406933908215792077e-12,1.066782806534353462e-12
3.305392393874438284e+01,1.277332260210510952e+02,-1.040572460531651728e+02,-2.628659082394978925e-13,1.937986935017580650e-12,-9.607852030040463896e-13
-1.518946307125644068e+02,-3.679521701928486266e+00,1.550737246574873041e+01,-2.842902353264717973e-12,2.229555016977114351e-13,2.187348588680838651e-12
1.224031609506662335e+02,1.195555523324586176e+02,-3.449778967981627176e+01,2.581937943354467542e-12,-4.835804719030290510e-14,-4.430125404502441814e-12
-2.685870855091100111e+02,-1.570857866481975691e+02,-5.938248655279419097e+01,-5.523141273160060077e-12,-1.977068517521793027e-12,-3.749390493378155378e-12
1.976353304492104428e+02,7.843307281077102289e+01,1.238164069462413295e+02,6.398195290787714209e-12,3.274094923890400269e-13,2.160346794746269724e-12
1.066589071103348516e+02,6.828101067880096764e+01,-8.925861660397477237e+01,1.561680891724143174e-12,-8.357408133247730805e-13,6.389957033110290746e-14
-1.890634736487641874e+02,5.297812464062383242e+01,-2.809343640221778671e+01,-5.213752019567879907e-12,2.542649129013302390e-12,2.310732510097856824e-13
