# position data <x,y,z>, velocity data <vx,vy,vz>; N=19, L=1000
6.938512390733316693e+01,-1.041779257631473570e+02,-6.266409268605321614e+01,2.495964911861006014e-12,-4.273618787864038458e-12,2.976447077121436586e-12
1.114813487214644425e+02,-3.648462384798114044e+01,-3.067923796922005053e+01,5.030213431186196013e-12,2.954890041711631857e-12,-6.743858382531646463e-13
-6.205802783138575762e+01,-1.858227677766634045e+01,-8.506777190703552094e+01,2.716035978648671776e-12,9.281856154250243407e-13,-3.269559260982876069e-12
-8.910560681377523906e+01,-9.154080484550425467e+01,1.313003435706947286e+01,-5.715561214437909920e-12,3.761076016060501693e-12,-7.354212661363113702e-12
-5.549213766825992877e+01,-1.067785020559899039e+02,7.852354997790769175e+01,1.400136796671478832e-12,6.046605251314128374e-13,-3.027506584011924699e-12
2.457621374016725113e+01,8.409088660977730001e+01,-8.503940295814653894e+01,-1.301937636025103296e-12,4.798650740887632549e-12,3.894463996152888827e-13
5.927663519387222379e+01,8.978666626527805761e+01,-1.117099422309175054e+02,-4.640603338810561804e-13,4.519959233058499566e-13,1.478180453762328957e-12
-5.904423435250793162e+00,-9.217669692019852334e+01,1.442108732631706687e+02,9.108896318221387348e-13,-3.842230792717088231e-12,3.189960368340245382e-12
-1.559403400191051503e+02,5.165786358717492988e+01,-1.311949767186165161e+01,-6.692276723591473746e-12,2.593781166141342478e-14,1.539422825322462238e-12
-5.932994710224226509e+01,3.156212985232548363e+01,-6.318280594123788063e+01,8.587248419900019637e-13,2.378104735176232002e-12,-1.407024791703380618e-12
-8.436591138944754675e+01,-7.469249410569300807e-01,-6.849907181374099707e+01,-3.697784230577524215e-12,6.411505115456497007e-13,-4.058475387162822172e-12
5.685691283038390509e+01,1.370548407713430095e+01,9.374760289479684161e+01,3.755976419922028563e-12,2.865623133804654074e-12,9.226604464693139880e-14
2.504332824808765778e+01,1.005227904920287187e+02,-4.884637369812196539e+01,1.941926762285750664e-12,-3.747813691624828283e-12,1.920038761943492895e-12
3.885333397353428353e+01,2.241108795548143462e+00,9.099383153756592435e+01,-5.503175025739626633e-12,6.648526556673000875e-13,3.381277088361516426e-13
-4.728236772628903140e+01,-4.420900986113995401e+01,8.204142387786824031e+01,8.617390186332884916e-12,-2.240070904361591175e-12,5.718225183848558214e-12
9.031560594758728655e+01,-8.664573877015777725e+01,-8.413942040856228743e+01,-2.066589042680127943e-12,-9.350013423832917645e-13,9.172142092027909252e-13
1.687914659234306214e+01,-5.574093115223229944e+01,1.032900514145087385e+02,-2.703063882541435746e-12,6.189948662913364053e-12,-2.098974138495468910e-12
7.710062178466134242e+01,-8.766800579053713705e+01,8.254569815422432555e+01,2.177429263685758077e-12,2.731872994791079161e-12,2.905017737918485517e-12
-7.340910725689997207e+01,6.636513537157466658e+01,-7.195295562220456986e+01,-9.499297239064680533e-13,1.316114604870765960e-13,-7.626589948003946631e-12
