# position data <x,y,z>, velocity data <vx,vy,vz>; N=17, L=1000
-1.912169278559810337e+01,2.664999721403292483e+02,-6.721840747275783201e+01,2.129369063837119393e-12,6.364547314063313642e-12,-1.206692938724362622e-13
1.582322435876238309e+01,-3.917795396045492140e+01,4.668456898901517604e+01,9.259267241325545146e-13,1.078247235079918929e-12,1.318110712829915749e-12
2.780764507319689116e+01,1.738154464241487460e+02,5.358951704881240730e+00,3.088039353504151812e-12,4.757712125633235784e-12,3.665451740559332030e-12
9.229525341051310505e+00,-4.765588825174865661e+01,-1.302363582329860492e+02,-5.592216070331537754e-13,-2.159184902700757721e-12,-5.210305798430255392e-12
-1.307395996347279095e+02,-9.475786645303352884e+01,5.141989882427724012e+01,-2.497397582559387993e-12,-2.411272034980087209e-12,5.018858910199669747e-13
-4.457451877483099878e+01,-1.837090502756857191e+01,-7.719964284797437415e+01,-3.735474539975453729e-12,-1.746397285330317127e-12,-3.119405417461674187e-12
1.084509650421868230e+02,-1.234072171379539640e+01,-2.361409286119400122e+02,1.730220447830824695e-13,4.180692557603068858e-13,-4.365545071906152756e-12
7.177858814398074827e+00,-1.243523912817319399e+02,2.831950200520117633e+01,4.403385827611152613e-12,-5.277455178773104042e-13,2.456033468426763999e-12
-6.817223899388342545e+01,5.643773761926741628e+01,-7.858152506989681285e+01,6.967730221099510971e-13,8.974455222083343672e-14,-1.167480828836943370e-12
-1.187881926753293840e+02,-1.479836251039171202e+02,-7.584139453034357814e+01,-1.482142144621489714e-12,-1.406933911647519677e-12,1.066782804888548790e-12
3.404935274437304571e+01,1.203943967606730041e+02,-1.004189147323472326e+02,-2.628659089862417538e-13,1.937986938332203628e-12,-9.607852059233487268e-13
-1.411290395792644290e+02,-4.523816535523336846e+00,7.224252733123063486e+00,-2.842902355198491762e-12,2.229555011435424804e-13,2.187348591861525821e-12
1.126257979644537244e+02,1.197386760865437338e+02,-1.772165289431996626e+01,2.581937947479151968e-12,-4.835804492323352851e-14,-4.430125402160789627e-12
-2.476718821972129376e+02,-1.495989620375648883e+02,-4.518417791465624589e+01,-5.523141276193356425e-12,-1.977068519232452213e-12,-3.749390493772828774e-12
1.734064453450451708e+02,7.719322835234082447e+01,1.156355384495015528e+02,6.398195292838132581e-12,3.274094926823186700e-13,2.160346796768615654e-12
1.007450852881025583e+02,7.144582001029593243e+01,-8.950059348155457428e+01,1.561680895660282119e-12,-8.357408149898536253e-13,6.389956792632999650e-14
-1.693198751901220191e+02,4.334954176079427413e+01,-2.896847178056486527e+01,-5.213752024575274291e-12,2.542649132645359564e-12,2.310732499473829038e-13
