# position data <x,y,z>, velocity data <vx,vy,vz>; N=19, L=1000
8.986401877401182503e+01,-1.392421164222186007e+02,-3.824293742278545949e+01,2.495964910577226954e-12,-4.273618764037289129e-12,2.976447069495581375e-12
1.527532477464552869e+02,-1.224033973850892920e+01,-3.621243941730246974e+01,5.030213416580911083e-12,2.954890039408716199e-12,-6.743858367323205906e-13
-3.977349376024303496e+01,-1.096669861974859828e+01,-1.118938541973633818e+02,2.716035969290479430e-12,9.281856351181633267e-13,-3.269559242774910187e-12
-1.360006478776523409e+02,-6.068192537113466756e+01,-4.720981542158107658e+01,-5.715561202589893429e-12,3.761076025849680180e-12,-7.354212660556232941e-12
-4.400429414017892782e+01,-1.018173828333841868e+02,5.368346158784753186e+01,1.400136807048087022e-12,6.046605411966853821e-13,-3.027506584686335393e-12
1.389407484863154707e+01,1.234628598959854173e+02,-8.184407277638700862e+01,-1.301937626450942696e-12,4.798650722840877221e-12,3.894464102606105617e-13
5.546911250443911712e+01,9.349520274395612773e+01,-9.958176599604765045e+01,-4.640603567082938521e-13,4.519959181380222674e-13,1.478180474827140194e-12
1.569244532679453297e+00,-1.237014350716046920e+02,1.703838625000627758e+02,9.108896333338638109e-13,-3.842230779400782532e-12,3.189960350000016631e-12
-2.108491372486649311e+02,5.187067814268632304e+01,-4.888400879015386558e-01,-6.692276710817632123e-12,2.593780686737338022e-14,1.539422821923460375e-12
-5.228428088066841894e+01,5.107400541554722651e+01,-7.472716409702519513e+01,8.587248373579652187e-13,2.378104728490287419e-12,-1.407024802210289949e-12
-1.147054941937257411e+02,4.513587307279189886e+00,-1.017980538293507635e+02,-3.697784201836210524e-12,6.411505183385357518e-13,-4.058475383052190930e-12
8.767395095717260745e+01,3.721735090523962697e+01,9.450462736887116932e+01,3.755976394687356440e-12,2.865623114994429619e-12,9.226603587942411407e-14
4.097645043164026646e+01,6.977272573992587468e+01,-3.309283825974048199e+01,1.941926754474248739e-12,-3.747813700182418040e-12,1.920038742900912276e-12
-6.299120721987551796e+00,7.696092291236085181e+00,9.376810200348316471e+01,-5.503175019278242603e-12,6.648526100498571316e-13,3.381276955384119681e-13
2.342160209322957343e+01,-6.258834533978968295e+01,1.289583222832703768e+02,8.617390202729061916e-12,-2.240070893857363113e-12,5.718225169801980473e-12
7.335965450447631042e+01,-9.431723853586308337e+01,-7.661386044517080052e+01,-2.066589051678148968e-12,-9.350013460045236964e-13,9.172142308458444252e-13
-5.298954087689719650e+00,-4.953635490679682007e+00,8.606838674503518405e+01,-2.703063883431975243e-12,6.189948689496871295e-12,-2.098974133662462617e-12
9.496599503826496402e+01,-6.525353206265596384e+01,1.063807899367904497e+02,2.177429247339076204e-12,2.731873004985420244e-12,2.905017732414193076e-12
-8.120309133075129182e+01,6.744498106581674790e+01,-1.345276067080146163e+02,-9.499297094965142721e-13,1.316114363023194188e-13,-7.626589929386332474e-12
